<svg xmlns="http://www.w3.org/2000/svg" width="3" height="12" viewBox="0 0 3 12">
  <path id="Path_157" data-name="Path 157" d="M11.5,7A1.5,1.5,0,1,0,10,5.5,1.5,1.5,0,0,0,11.5,7Zm0,1.5A1.5,1.5,0,1,0,13,10,1.5,1.5,0,0,0,11.5,8.5Zm0,4.5A1.5,1.5,0,1,0,13,14.5,1.5,1.5,0,0,0,11.5,13Z" transform="translate(-10 -4)" fill="rgba(102,102,102,0.46)"/>
</svg>
