<svg xmlns="http://www.w3.org/2000/svg" width="32.945" height="32.84" viewBox="0 0 32.945 32.84">
  <path id="facebook-icon" d="M383.42,300.754a1.816,1.816,0,0,1-1.818,1.813h-8.4V289.85h4.282l.641-4.957h-4.923V281.73c0-1.435.4-2.413,2.464-2.413H378.3v-4.433a35.572,35.572,0,0,0-3.837-.194c-3.8,0-6.395,2.31-6.395,6.55v3.655h-4.293v4.957h4.293v12.718H352.293a1.816,1.816,0,0,1-1.818-1.813V271.54a1.815,1.815,0,0,1,1.818-1.813H381.6a1.815,1.815,0,0,1,1.818,1.813Z" transform="translate(-350.475 -269.727)" fill="#43619c"/>
</svg>
