<?xml version="1.0" encoding="iso-8859-1"?>
<!-- Generator: Adobe Illustrator 19.0.0, SVG Export Plug-In . SVG Version: 6.00 Build 0)  -->
<svg version="1.1" id="Capa_1" xmlns="http://www.w3.org/2000/svg" xmlns:xlink="http://www.w3.org/1999/xlink" x="0px" y="0px"
	 viewBox="0 0 507.2 507.2" style="enable-background:new 0 0 507.2 507.2;" xml:space="preserve">
<rect x="25.6" y="159.2" style="fill:#FFFFFF;" width="456.8" height="342.4"/>
<circle style="fill:#27A2DE;" cx="253.6" cy="346.4" r="99.2"/>
<polygon style="fill:#FFFFFF;" points="500.8,69.6 6.4,69.6 40.8,5.6 466.4,5.6 "/>
<path style="fill:#F15F50;" d="M105.6,148V69.6H8l-0.8,77.6c0,27.2,21.6,49.6,49.6,49.6l0,0C84,196.8,105.6,175.2,105.6,148z"/>
<path style="fill:#FFFFFF;" d="M56.8,164.8c-4.8,0-8.8-1.6-12-4.8s-4.8-8-4.8-12v-45.6h34.4v46.4C73.6,157.6,66.4,164.8,56.8,164.8z
	"/>
<path style="fill:#F15F50;" d="M204.8,148V69.6h-98.4v77.6c0,27.2,22.4,49.6,49.6,49.6l0,0C182.4,196.8,204.8,175.2,204.8,148z"/>
<path style="fill:#FFFFFF;" d="M155.2,164.8c-4.8,0-8.8-1.6-12-4.8s-4.8-8-4.8-12v-45.6h34.4v46.4
	C172.8,157.6,164.8,164.8,155.2,164.8z"/>
<path style="fill:#F15F50;" d="M303.2,148V69.6h-98.4v77.6c0,27.2,22.4,49.6,49.6,49.6l0,0C280.8,196.8,303.2,175.2,303.2,148z"/>
<path style="fill:#FFFFFF;" d="M253.6,164.8c-4.8,0-8.8-1.6-12-4.8s-4.8-8-4.8-12v-45.6h34.4v46.4
	C271.2,157.6,263.2,164.8,253.6,164.8z"/>
<path style="fill:#F15F50;" d="M401.6,148V70.4h-98.4V148c0,27.2,22.4,49.6,49.6,49.6l0,0C380,196.8,401.6,175.2,401.6,148z"/>
<path style="fill:#FFFFFF;" d="M352.8,164.8c-4.8,0-8.8-1.6-12-4.8s-4.8-8-4.8-12v-45.6h34.4V148c0,4.8-1.6,8.8-4.8,12
	C361.6,163.2,356.8,164.8,352.8,164.8z"/>
<path style="fill:#F15F50;" d="M500.8,148V70.4h-99.2v78.4c0,27.2,22.4,49.6,49.6,49.6l0,0C478.4,196.8,500.8,175.2,500.8,148z"/>
<path style="fill:#FFFFFF;" d="M451.2,164.8c-9.6,0-17.6-8-17.6-17.6v-46.4H468v45.6c0,4.8-1.6,8.8-4.8,12
	C460,163.2,456,164.8,451.2,164.8z"/>
<g>
	<path style="fill:#193651;" d="M506.4,67.2L472,3.2c-0.8-1.6-3.2-3.2-5.6-3.2H40.8c-2.4,0-4,1.6-5.6,3.2l-34.4,64
		c-0.8,1.6-0.8,4,0,5.6v74.4c0,15.2,5.6,29.6,18.4,40.8v307.2H5.6v12h496v-12H488V188.8c12-11.2,18.4-25.6,18.4-41.6v-76
		C507.2,70.4,507.2,68.8,506.4,67.2z M44,12h419.2l28,52H16.8L44,12z M396,148c0,24-19.2,43.2-43.2,43.2S309.6,172,309.6,148
		c0-7.2,0-64,0-72H396C396,84,396,140.8,396,148z M297.6,76v72l0,0c0,24-19.2,43.2-43.2,43.2S211.2,172,211.2,148V76
		C211.2,76,297.6,76,297.6,76z M198.4,148L198.4,148c0,24-19.2,43.2-43.2,43.2S112,172,112,148v-43.2V76h86.4L198.4,148L198.4,148z
		 M12.8,148l0.8-72H100v72c0,24-19.2,43.2-43.2,43.2C32.8,191.2,12.8,172,12.8,148z M476,496H31.2V196.8c8,4,16,6.4,25.6,6.4
		c21.6,0,40-12,49.6-30.4c9.6,18.4,28,30.4,49.6,30.4s40-12,49.6-30.4c9.6,18.4,28,30.4,49.6,30.4s40-12,49.6-30.4
		c9.6,18.4,28,30.4,49.6,30.4c20.8,0,40-12,49.6-30.4c8.8,17.6,28,30.4,49.6,30.4c8.8,0,17.6-2.4,24.8-5.6V496H476z M451.2,191.2
		c-24,0-43.2-19.2-43.2-43.2l0,0V76h86.4v72C494.4,172,475.2,191.2,451.2,191.2z"/>
	<path style="fill:#193651;" d="M253.6,217.6c-71.2,0-128.8,57.6-128.8,128.8s57.6,128.8,128.8,128.8s128.8-57.6,128.8-128.8
		S324.8,217.6,253.6,217.6z M220,234.4c-12,12.8-21.6,32.8-27.2,56.8h-42.4C164.8,264,190.4,243.2,220,234.4z M136.8,346.4
		c0-15.2,3.2-29.6,8.8-43.2h45.6c-2.4,13.6-4,28-4,43.2s1.6,29.6,4,43.2h-45.6C140,376,136.8,361.6,136.8,346.4z M150.4,401.6h42.4
		c5.6,24,15.2,44,27.2,56.8C190.4,449.6,164.8,428.8,150.4,401.6z M248,462.4c-18.4-4-34.4-28-42.4-60.8H248V462.4z M248,389.6
		h-44.8c-2.4-13.6-4-28-4-43.2s1.6-29.6,4-43.2H248V389.6z M248,291.2h-42.4c8.8-32.8,24-56.8,42.4-60.8V291.2z M260,230.4
		c18.4,4,33.6,28,42.4,60.8H260V230.4z M260,303.2h44.8c2.4,13.6,4,28,4,43.2s-1.6,29.6-4,43.2H260V303.2z M260,462.4v-60.8h41.6
		C293.6,434.4,277.6,458.4,260,462.4z M287.2,458.4c12-12.8,21.6-32.8,27.2-56.8h42.4C342.4,428.8,317.6,449.6,287.2,458.4z
		 M370.4,346.4c0,15.2-3.2,29.6-8.8,43.2H316c2.4-13.6,4-28,4-43.2s-1.6-29.6-4-43.2h45.6C368,316,370.4,331.2,370.4,346.4z
		 M314.4,291.2c-5.6-24-15.2-44-27.2-56.8c29.6,8.8,55.2,29.6,69.6,56.8H314.4z"/>
	<rect x="425.6" y="274.4" style="fill:#193651;" width="16" height="16"/>
	<rect x="425.6" y="338.4" style="fill:#193651;" width="16" height="16"/>
	<rect x="425.6" y="402.4" style="fill:#193651;" width="16" height="16"/>
	<rect x="65.6" y="274.4" style="fill:#193651;" width="16" height="16"/>
	<rect x="65.6" y="338.4" style="fill:#193651;" width="16" height="16"/>
	<rect x="65.6" y="402.4" style="fill:#193651;" width="16" height="16"/>
</g>
<g>
</g>
<g>
</g>
<g>
</g>
<g>
</g>
<g>
</g>
<g>
</g>
<g>
</g>
<g>
</g>
<g>
</g>
<g>
</g>
<g>
</g>
<g>
</g>
<g>
</g>
<g>
</g>
<g>
</g>
</svg>
