<svg xmlns="http://www.w3.org/2000/svg" width="33.611" height="27.919" viewBox="0 0 33.611 27.919">
  <path id="twitter-icon" d="M896.62,274.486a13.593,13.593,0,0,1-4.382,1.709,6.808,6.808,0,0,0-5.033-2.225,6.974,6.974,0,0,0-6.893,7.048,7.154,7.154,0,0,0,.178,1.6,19.428,19.428,0,0,1-14.214-7.367,7.159,7.159,0,0,0-.933,3.549,7.085,7.085,0,0,0,3.067,5.865,6.786,6.786,0,0,1-3.125-.878v.086a7.014,7.014,0,0,0,5.534,6.912,6.591,6.591,0,0,1-1.817.247,6.681,6.681,0,0,1-1.3-.124,6.922,6.922,0,0,0,6.442,4.893,13.649,13.649,0,0,1-8.564,3.018,13.892,13.892,0,0,1-1.646-.1,19.236,19.236,0,0,0,10.571,3.164c12.686,0,19.62-10.738,19.62-20.053,0-.307-.005-.613-.018-.913a14.134,14.134,0,0,0,3.439-3.647,13.509,13.509,0,0,1-3.959,1.108,7.037,7.037,0,0,0,3.032-3.9" transform="translate(-863.935 -273.97)" fill="#24a9e6"/>
</svg>
