<svg xmlns="http://www.w3.org/2000/svg" xmlns:xlink="http://www.w3.org/1999/xlink" width="416" height="228.97" viewBox="0 0 416 228.97">
  <defs>
    <filter id="Union_1" x="174.749" y="0" width="84" height="65.331" filterUnits="userSpaceOnUse">
      <feOffset dy="3" input="SourceAlpha"/>
      <feGaussianBlur stdDeviation="3" result="blur"/>
      <feFlood flood-color="#e5e5e5"/>
      <feComposite operator="in" in2="blur"/>
      <feComposite in="SourceGraphic"/>
    </filter>
  </defs>
  <g id="group_membership" transform="translate(-634 -687.03)">
    <g id="Group_528" data-name="Group 528">
      <rect id="Rectangle_132" data-name="Rectangle 132" width="383" height="1" transform="translate(667 726)" fill="rgba(231,242,255,0.5)"/>
      <text id="_500" data-name="500" transform="translate(655 730)" fill="#666" font-size="11" font-family="WorkSans-Regular, Work Sans"><tspan x="-20.086" y="0">500</tspan></text>
      <rect id="Rectangle_132-2" data-name="Rectangle 132" width="383" height="1" transform="translate(667 767)" fill="rgba(231,242,255,0.5)"/>
      <text id="_400" data-name="400" transform="translate(655 771)" fill="#666" font-size="11" font-family="WorkSans-Regular, Work Sans"><tspan x="-20.405" y="0">400</tspan></text>
      <rect id="Rectangle_132-3" data-name="Rectangle 132" width="383" height="1" transform="translate(667 808)" fill="rgba(231,242,255,0.5)"/>
      <text id="_300" data-name="300" transform="translate(655 812)" fill="#666" font-size="11" font-family="WorkSans-Regular, Work Sans"><tspan x="-20.097" y="0">300</tspan></text>
      <rect id="Rectangle_132-4" data-name="Rectangle 132" width="383" height="1" transform="translate(667 849)" fill="rgba(231,242,255,0.5)"/>
      <text id="_200" data-name="200" transform="translate(655 853)" fill="#666" font-size="11" font-family="WorkSans-Regular, Work Sans"><tspan x="-20.097" y="0">200</tspan></text>
      <rect id="Rectangle_132-5" data-name="Rectangle 132" width="383" height="1" transform="translate(667 890)" fill="rgba(231,242,255,0.5)"/>
      <text id="_100" data-name="100" transform="translate(655 894)" fill="#666" font-size="11" font-family="WorkSans-Regular, Work Sans"><tspan x="-18.183" y="0">100</tspan></text>
      <text id="Jan" transform="translate(666 913)" fill="#666" font-size="11" font-family="WorkSans-Regular, Work Sans"><tspan x="0" y="0">Jan</tspan></text>
      <text id="Feb" transform="translate(726 913)" fill="#666" font-size="11" font-family="WorkSans-Regular, Work Sans"><tspan x="0" y="0">Feb</tspan></text>
      <text id="Mar" transform="translate(782 913)" fill="#666" font-size="11" font-family="WorkSans-Regular, Work Sans"><tspan x="0" y="0">Mar</tspan></text>
      <text id="Apr" transform="translate(842 913)" fill="#666" font-size="11" font-family="WorkSans-Regular, Work Sans"><tspan x="0" y="0">Apr</tspan></text>
      <text id="Mar-2" data-name="Mar" transform="translate(900 913)" fill="#666" font-size="11" font-family="WorkSans-Regular, Work Sans"><tspan x="0" y="0">Mar</tspan></text>
      <text id="Jun" transform="translate(951 913)" fill="#666" font-size="11" font-family="WorkSans-Regular, Work Sans"><tspan x="0" y="0">Jun</tspan></text>
      <text id="Jul" transform="translate(1006 913)" fill="#666" font-size="11" font-family="WorkSans-Regular, Work Sans"><tspan x="0" y="0">Jul</tspan></text>
    </g>
    <g id="Group_529" data-name="Group 529">
      <path id="Path_219" data-name="Path 219" d="M-1572.84-1105.873s22.881-42.174,58.98-42.24,30.422,82.355,61.676,82.355,30.1-82.27,63.34-82.355,24.8,134.746,54.219,124.68,23.949-165.184,63.447-164.943,7.191,123.182,42.535,122.619a38.211,38.211,0,0,0,14.505-2.928c21.44-9.012,22.929-37.187,22.929-37.187v100.035H-1572.84Z" transform="translate(2240 1895)" fill="rgba(255,90,78,0.2)" opacity="0.403"/>
      <path id="Path_218" data-name="Path 218" d="M-1572.84-1105.873s22.881-42.174,58.98-42.24,30.422,82.355,61.676,82.355,30.1-82.27,63.34-82.355,24.8,134.746,54.219,124.68,23.949-165.184,63.447-164.943,7.191,123.182,42.535,122.619,37.434-40.115,37.434-40.115" transform="translate(2240 1894)" fill="none" stroke="#ff5a4e" stroke-linecap="round" stroke-linejoin="round" stroke-width="2"/>
      <g transform="matrix(1, 0, 0, 1, 634, 687.03)" filter="url(#Union_1)">
        <path id="Union_1-2" data-name="Union 1" d="M25.74-134H3a3,3,0,0,1-3-3v-31a3,3,0,0,1,3-3H62a3,3,0,0,1,3,3v31a3,3,0,0,1-3,3H39.264L32.5-125Z" transform="translate(184.25 177.5)" fill="#fff" stroke="rgba(0,0,0,0)" stroke-width="1"/>
      </g>
      <text id="_250" data-name="250" transform="translate(852.507 718.881)" fill="#b1b5b8" font-size="17" font-family="Poppins-Medium, Poppins" font-weight="500" letter-spacing="0.075em"><tspan x="-16.694" y="0">250</tspan></text>
    </g>
  </g>
</svg>
