<svg xmlns="http://www.w3.org/2000/svg" xmlns:xlink="http://www.w3.org/1999/xlink" width="453" height="109" viewBox="0 0 453 109">
  <defs>
    <filter id="Rectangle" x="0" y="0" width="453" height="109" filterUnits="userSpaceOnUse">
      <feOffset dy="1" input="SourceAlpha"/>
      <feGaussianBlur stdDeviation="1.5" result="blur"/>
      <feFlood flood-opacity="0.078"/>
      <feComposite operator="in" in2="blur"/>
      <feComposite in="SourceGraphic"/>
    </filter>
  </defs>
  <g transform="matrix(1, 0, 0, 1, 0, 0)" filter="url(#Rectangle)">
    <rect id="Rectangle-2" data-name="Rectangle" width="444" height="100" rx="10" transform="translate(4.5 3.5)" fill="#fff"/>
  </g>
</svg>
