<?xml version="1.0" encoding="utf-8"?>
<!-- Generator: Adobe Illustrator 21.1.0, SVG Export Plug-In . SVG Version: 6.00 Build 0)  -->
<svg version="1.1" id="Layer_1" xmlns="http://www.w3.org/2000/svg" xmlns:xlink="http://www.w3.org/1999/xlink" x="0px" y="0px"
	 viewBox="0 0 41.9 41.9" style="enable-background:new 0 0 41.9 41.9;" xml:space="preserve">
<style type="text/css">
	.st0{fill:none;}
	.st1{fill:#666666;}
</style>
<path class="st0" d="M0,0h41.9v41.9H0V0z"/>
<path class="st1" d="M7,7h27.9v20.9H9l-2,2V7 M7,3.5C5.1,3.5,3.5,5.1,3.5,7l0,31.4l7-7h24.4c1.9,0,3.5-1.6,3.5-3.5V7
	c0-1.9-1.6-3.5-3.5-3.5H7z M10.5,20.9h14v3.5h-14V20.9z M10.5,15.7h20.9v3.5H10.5V15.7z M10.5,10.5h20.9V14H10.5V10.5z"/>
</svg>
