<svg xmlns="http://www.w3.org/2000/svg" width="17.752" height="16.784" viewBox="0 0 17.752 16.784">
  <g id="Group_640" data-name="Group 640" transform="translate(0 0)">
    <path id="Path_353" data-name="Path 353" d="M6.651,9.5V8.768a6.481,6.481,0,0,1-1.151-1,14.4,14.4,0,0,1-2.13,1.7l-.094.058-.568-.908L2.8,8.556A13.907,13.907,0,0,0,4.832,6.917a9.68,9.68,0,0,1-1.3-2.786l-.027-.1L4.54,3.76l.026.106A8.922,8.922,0,0,0,5.583,6.1,5.1,5.1,0,0,0,6.813,3.617H2.453V2.452h2.4V1.8h1.12V2.45h2.4V3.617H7.9A6.258,6.258,0,0,1,6.245,6.982c.132.148.268.284.406.414V6.848a.7.7,0,0,1,.705-.705h3.138V.593a.175.175,0,0,0-.176-.176H.176A.176.176,0,0,0,0,.593v10.14a.175.175,0,0,0,.176.176H6.651V9.5Z" transform="translate(0 -0.417)" fill="silver"/>
    <path id="Path_354" data-name="Path 354" d="M10.825,8.515h-.02c-.1.386-.193.876-.3,1.25l-.385,1.377h1.434l-.4-1.377C11.036,9.38,10.92,8.9,10.825,8.515Z" transform="translate(1.619 0.878)" fill="silver"/>
    <path id="Path_355" data-name="Path 355" d="M16.574,5.841H6.434a.176.176,0,0,0-.176.176V16.159a.175.175,0,0,0,.176.175h10.14a.175.175,0,0,0,.176-.175V6.017A.176.176,0,0,0,16.574,5.841Zm-3.689,8.49-.5-1.666H10.529l-.463,1.666H8.547l1.982-6.484h1.923l2.01,6.484Z" transform="translate(1.001 0.45)" fill="silver"/>
    <path id="Path_356" data-name="Path 356" d="M4.129,9.846H2.72v2.343l1.167,1.155H6.508V11.935H4.129Z" transform="translate(0.435 1.091)" fill="silver"/>
  </g>
</svg>
