<svg xmlns="http://www.w3.org/2000/svg" xmlns:xlink="http://www.w3.org/1999/xlink" width="260.267" height="52.031" viewBox="0 0 260.267 52.031">
  <defs>
    <linearGradient id="linear-gradient" x1="1" x2="-1.011" y2="1.584" gradientUnits="objectBoundingBox">
      <stop offset="0" stop-color="#0089e8"/>
      <stop offset="1" stop-color="#056fb9"/>
    </linearGradient>
  </defs>
  <g id="Group_741" data-name="Group 741" transform="translate(0 0)">
    <g id="favicon" transform="translate(0 0.255)">
      <rect id="favicon-2" data-name="favicon" width="50.522" height="50.522" rx="10" fill="url(#linear-gradient)"/>
      <g id="Group_731" data-name="Group 731" transform="translate(7.298 12.35)">
        <path id="Path_423" data-name="Path 423" d="M944.582,429.857a.893.893,0,0,0-.018.152,5.955,5.955,0,0,1-.163,1.079c0,.017-.013.03-.022.056h-6.236a1.991,1.991,0,0,1-1.982-1.552,1.964,1.964,0,0,1,1.607-2.358,2.941,2.941,0,0,1,.388-.035h6.06c.018.061.035.113.053.165a7.116,7.116,0,0,1,.282,1.4c.009.069,0,.139.009.208,0,.035.013.069.018.1C944.582,429.333,944.582,429.593,944.582,429.857Z" transform="translate(-908.672 -410.759)" fill="#fff"/>
        <path id="Path_424" data-name="Path 424" d="M944.738,178.538a.785.785,0,0,0-.018.143,6.757,6.757,0,0,1-.327,1.677.38.38,0,0,1-.022.043H938.3a1.993,1.993,0,0,1-1.973-1.547,1.97,1.97,0,0,1,1.58-2.358,2.742,2.742,0,0,1,.419-.039c2.026,0,4.052,0,6.077,0h.146c.031.147.062.282.084.425a4.688,4.688,0,0,1,.088.785.5.5,0,0,0,.018.078Z" transform="translate(-908.828 -170.869)" fill="#fff"/>
        <path id="Path_425" data-name="Path 425" d="M313.4,299.994a.915.915,0,0,0,.04-.117,2.139,2.139,0,1,1,.009.707c-.013-.061-.031-.117-.049-.178Z" transform="translate(-313.4 -287.213)" fill="#fff"/>
        <path id="Path_426" data-name="Path 426" d="M627.609,47.4l.172.039a2.142,2.142,0,1,1-2.511,2.514,2.126,2.126,0,0,1,1.743-2.514l.194-.039Z" transform="translate(-611.484 -47.4)" fill="#fff"/>
        <path id="Path_427" data-name="Path 427" d="M452.111,552.966l-.216-.039a2.161,2.161,0,1,1,.847-.009c-.1.022-.194.035-.291.052C452.336,552.966,452.222,552.966,452.111,552.966Z" transform="translate(-444.087 -526.988)" fill="#fff"/>
        <path id="Path_428" data-name="Path 428" d="M472.351,301.9a7.215,7.215,0,0,1-1.726,1.964c.216.2.437.386.64.59s.4.433.583.659a5.423,5.423,0,0,1,.5.724c-.035,0-.057.009-.079.013H445.284a2.178,2.178,0,0,1-1.033-.225,1.94,1.94,0,0,1-1.068-1.53,1.964,1.964,0,0,1,1.567-2.141,2.444,2.444,0,0,1,.5-.048c1.43,0,2.86,0,4.29,0h22.641C472.232,301.9,472.276,301.9,472.351,301.9Z" transform="translate(-437.469 -290.883)" fill="#fff"/>
        <path id="Path_429" data-name="Path 429" d="M603.054,552.5c-.018.043-.026.069-.035.087a7.09,7.09,0,0,1-3.928,3.524,6.035,6.035,0,0,1-1.192.316.731.731,0,0,1-.137.013H581.57a1.967,1.967,0,0,1-.265-3.919,2.2,2.2,0,0,1,.34-.022h21.409Z" transform="translate(-567.864 -530.635)" fill="#fff"/>
        <path id="Path_430" data-name="Path 430" d="M770.3,55.24c-.053,0-.088,0-.124,0H756.611a1.969,1.969,0,0,1-.428-3.906,2.353,2.353,0,0,1,.388-.035q4.1,0,8.2,0a3.226,3.226,0,0,1,.763.091,7.015,7.015,0,0,1,4.3,3.026c.154.23.278.472.415.711C770.266,55.158,770.275,55.188,770.3,55.24Z" transform="translate(-735.111 -51.131)" fill="#fff"/>
        <path id="Path_431" data-name="Path 431" d="M591.79,180.64H581.485a1.992,1.992,0,0,1-1.96-1.521,1.969,1.969,0,0,1,1.593-2.384,2.353,2.353,0,0,1,.388-.035h10.279C591.808,176.774,591.817,180.48,591.79,180.64Z" transform="translate(-567.75 -171.103)" fill="#fff"/>
        <path id="Path_432" data-name="Path 432" d="M740.472,431.236c-.031,0-.066,0-.1,0h-3.337a1.969,1.969,0,0,1-.278-3.923,2.08,2.08,0,0,1,.287-.017h3.425C740.494,427.387,740.494,431.136,740.472,431.236Z" transform="translate(-716.441 -410.855)" fill="#fff"/>
        <path id="Path_433" data-name="Path 433" d="M452.176,177.074a2.137,2.137,0,1,1,2.176-2.137A2.158,2.158,0,0,1,452.176,177.074Z" transform="translate(-443.979 -167.372)" fill="#fff"/>
        <path id="Path_434" data-name="Path 434" d="M610.052,425.537a2.176,2.176,0,1,1-2.176-2.137A2.155,2.155,0,0,1,610.052,425.537Z" transform="translate(-592.817 -407.124)" fill="#fff"/>
      </g>
    </g>
    <g id="Group_739" data-name="Group 739" transform="translate(60.049)">
      <path id="Path_435" data-name="Path 435" d="M6.076-19.5h9.188c5.464,0,8.423-2.436,8.423-6.369a5.273,5.273,0,0,0-4.7-5.255v-.035A4.873,4.873,0,0,0,23.1-36.171c0-3.933-2.471-6.3-7.97-6.3H6.076ZM9.73-32.586v-6.752h5.116c2.924,0,4.385,1.114,4.385,3.376s-1.462,3.376-4.385,3.376Zm0,9.989v-6.891h5.708c2.924,0,4.385,1.253,4.385,3.446S18.362-22.6,15.438-22.6Zm20.4-17.228A2.184,2.184,0,0,0,32.6-42.157a2.159,2.159,0,0,0-2.471-2.3c-1.6,0-2.506.835-2.506,2.3A2.211,2.211,0,0,0,30.125-39.825ZM31.97-36.9H28.246v17.4H31.97ZM52.818-19.5l-6.369-8.84L52.713-36.9H48.432l-4.142,6.3-4.176-6.3H35.659l6.23,8.631L35.311-19.5h4.211l4.525-6.543L48.432-19.5Zm18.2-9.223c0-5.047-2.854-8.527-8.074-8.527-5.429,0-8.492,3.376-8.492,9.049s3.237,9.049,8.736,9.049c3.828,0,6.23-1.462,7.483-4.037l-3.1-1.288c-.557,1.531-2.088,2.367-4.385,2.367-2.819,0-4.629-1.636-5.047-4.7H70.881A14.443,14.443,0,0,0,71.02-28.723Zm-8.074-5.569c2.61,0,4.246,1.705,4.594,4.629H58.177C58.56-32.656,60.2-34.291,62.945-34.291ZM89.988-19.5l-6.369-8.84L89.884-36.9H85.6l-4.142,6.3-4.176-6.3H72.83l6.23,8.631L72.482-19.5h4.211l4.524-6.543L85.6-19.5Z" transform="translate(-6.018 44.454)" fill="#222"/>
      <path id="Path_436" data-name="Path 436" d="M6.758-14.707v1.221h3.419v.374c0,1.856-1.384,2.767-3.174,2.767-2.393,0-3.663-1.612-3.663-4.314S4.8-18.972,6.986-18.972A3.068,3.068,0,0,1,10.1-17.084l1.188-.651a4.3,4.3,0,0,0-4.3-2.458c-3.012,0-5.014,2.133-5.014,5.535S3.893-9.123,6.953-9.123a3.691,3.691,0,0,0,3.386-1.612l.049,1.449h.977v-5.421ZM15.24-21.17h-1.3V-11.3c0,1.481.635,2.181,1.954,2.181a3.176,3.176,0,0,0,1.2-.228l.212-1.253a2.9,2.9,0,0,1-1.188.228c-.667,0-.879-.26-.879-1.091Zm7.016,3.581c-2.458,0-3.94,1.6-3.94,4.233s1.481,4.233,3.94,4.233,3.94-1.6,3.94-4.233S24.714-17.589,22.256-17.589Zm0,1.123c1.644,0,2.637,1.172,2.637,3.109s-.993,3.109-2.637,3.109-2.637-1.172-2.637-3.109S20.612-16.465,22.256-16.465Zm10.3-1.123a3.073,3.073,0,0,0-2.7,1.433V-21.17h-1.3V-9.286H29.7l.081-1.416a3.043,3.043,0,0,0,2.784,1.579c2.263,0,3.712-1.579,3.712-4.233S34.823-17.589,32.561-17.589Zm-.147,7.326c-1.547,0-2.556-1.156-2.556-3v-.2c0-1.84,1.009-3,2.556-3,1.6,0,2.556,1.2,2.556,3.093S34.01-10.263,32.414-10.263Zm12.909.033c-.456,0-.619-.2-.619-.586v-4c0-1.888-1.351-2.767-3.207-2.767A3.313,3.313,0,0,0,38.21-15.6l.96.7A2.386,2.386,0,0,1,41.5-16.449a1.709,1.709,0,0,1,1.9,1.791v.456l-2.165.358c-2.1.358-3.174,1.319-3.174,2.54,0,1.465,1.237,2.181,2.767,2.181a3.205,3.205,0,0,0,2.621-1.2,1.282,1.282,0,0,0,1.465,1.2,2.954,2.954,0,0,0,.977-.163l.081-1.026A2.853,2.853,0,0,1,45.324-10.23ZM40.9-10.263c-.928,0-1.481-.358-1.481-1.042,0-.765.733-1.237,2.165-1.5l1.823-.342v1.123C43.4-10.947,42.2-10.263,40.9-10.263ZM48.938-21.17h-1.3V-11.3c0,1.481.635,2.181,1.954,2.181a3.176,3.176,0,0,0,1.2-.228l.212-1.253a2.9,2.9,0,0,1-1.188.228c-.667,0-.879-.26-.879-1.091Zm12.4,3.581a3.073,3.073,0,0,0-2.7,1.433V-21.17h-1.3V-9.286h1.14l.081-1.416a3.043,3.043,0,0,0,2.784,1.579c2.263,0,3.712-1.579,3.712-4.233S63.605-17.589,61.342-17.589ZM61.2-10.263c-1.547,0-2.556-1.156-2.556-3v-.2c0-1.84,1.009-3,2.556-3,1.6,0,2.556,1.2,2.556,3.093S62.791-10.263,61.2-10.263Zm11.982-7.163V-13a2.47,2.47,0,0,1-2.6,2.735c-1.172,0-1.921-.5-1.921-2.181v-4.981h-1.3V-12.1a2.729,2.729,0,0,0,3,2.979,3.126,3.126,0,0,0,2.914-1.4l.081,1.237h1.14v-8.14Zm6.935,8.3c2.084,0,3.4-.993,3.4-2.409,0-1.335-.814-2.019-3.093-2.393-1.66-.277-2.2-.635-2.2-1.335,0-.6.814-1.188,1.9-1.188a1.985,1.985,0,0,1,2.116,1.465l1.107-.651c-.456-1.335-1.481-1.954-3.223-1.954-1.986,0-3.207,1.123-3.207,2.442,0,1.367.847,2,3.158,2.426,1.628.293,2.133.651,2.133,1.253,0,.667-.635,1.2-1.97,1.2A2.545,2.545,0,0,1,77.67-11.7l-1.058.733A3.713,3.713,0,0,0,80.112-9.123Zm6.3-9.865a.923.923,0,0,0,.977-.977.923.923,0,0,0-.977-.977.923.923,0,0,0-.977.977A.923.923,0,0,0,86.412-18.989Zm.651,1.563h-1.3v8.14h1.3Zm6.821-.163a2.945,2.945,0,0,0-2.735,1.433l-.081-1.27h-1.14v8.14h1.3v-4.33a2.5,2.5,0,0,1,2.523-2.833c1.123,0,2,.6,2,2.409v4.754h1.3V-14.5A2.915,2.915,0,0,0,93.884-17.589Zm12.942,3.809a3.527,3.527,0,0,0-3.647-3.809c-2.458,0-3.842,1.6-3.842,4.233s1.481,4.233,3.94,4.233a3.485,3.485,0,0,0,3.386-1.774l-1.091-.57a2.2,2.2,0,0,1-2.3,1.2,2.579,2.579,0,0,1-2.654-2.6h6.137A6.407,6.407,0,0,0,106.826-13.779Zm-3.647-2.67c1.384,0,2.214.928,2.393,2.426H100.64A2.453,2.453,0,0,1,103.18-16.449Zm8.726,7.326c2.084,0,3.4-.993,3.4-2.409,0-1.335-.814-2.019-3.093-2.393-1.66-.277-2.2-.635-2.2-1.335,0-.6.814-1.188,1.9-1.188a1.985,1.985,0,0,1,2.116,1.465l1.107-.651c-.456-1.335-1.481-1.954-3.223-1.954-1.986,0-3.207,1.123-3.207,2.442,0,1.367.847,2,3.158,2.426,1.628.293,2.133.651,2.133,1.253,0,.667-.635,1.2-1.97,1.2a2.545,2.545,0,0,1-2.572-1.433l-1.058.733A3.713,3.713,0,0,0,111.906-9.123Zm8.416,0c2.084,0,3.4-.993,3.4-2.409,0-1.335-.814-2.019-3.093-2.393-1.66-.277-2.2-.635-2.2-1.335,0-.6.814-1.188,1.9-1.188a1.985,1.985,0,0,1,2.116,1.465l1.107-.651c-.456-1.335-1.481-1.954-3.223-1.954-1.986,0-3.207,1.123-3.207,2.442,0,1.367.847,2,3.158,2.426,1.628.293,2.133.651,2.133,1.253,0,.667-.635,1.2-1.97,1.2A2.545,2.545,0,0,1,117.88-11.7l-1.058.733A3.713,3.713,0,0,0,120.322-9.123Zm18.021-4.656a3.527,3.527,0,0,0-3.647-3.809c-2.458,0-3.842,1.6-3.842,4.233s1.481,4.233,3.94,4.233A3.485,3.485,0,0,0,138.18-10.9l-1.091-.57a2.2,2.2,0,0,1-2.3,1.2,2.579,2.579,0,0,1-2.654-2.6h6.137A6.406,6.406,0,0,0,138.343-13.779Zm-3.647-2.67c1.384,0,2.214.928,2.393,2.426h-4.933A2.453,2.453,0,0,1,134.7-16.449Zm12.275,7.163-3-4.151,2.947-3.988h-1.53l-2.116,3.012-2.149-3.012H139.5l2.93,4.037-3.126,4.1h1.514l2.312-3.142,2.247,3.142Zm5-8.3c-2.458,0-3.94,1.6-3.94,4.233s1.481,4.233,3.94,4.233a3.452,3.452,0,0,0,3.451-2.393l-1.2-.423a2.084,2.084,0,0,1-2.279,1.677c-1.628,0-2.6-1.156-2.6-3.093s.977-3.093,2.6-3.093a2.109,2.109,0,0,1,2.165,1.612l1.237-.586A3.455,3.455,0,0,0,151.969-17.589Zm9.54,0a2.888,2.888,0,0,0-2.654,1.384V-21.17h-1.3V-9.286h1.3V-13.6a2.519,2.519,0,0,1,2.523-2.849c1.123,0,2,.6,2,2.409v4.754h1.3V-14.5A2.915,2.915,0,0,0,161.508-17.589Zm12.633,7.358c-.456,0-.619-.2-.619-.586v-4c0-1.888-1.351-2.767-3.207-2.767a3.313,3.313,0,0,0-3.288,1.986l.96.7a2.386,2.386,0,0,1,2.328-1.547,1.709,1.709,0,0,1,1.9,1.791v.456l-2.165.358c-2.1.358-3.174,1.319-3.174,2.54,0,1.465,1.237,2.181,2.767,2.181a3.205,3.205,0,0,0,2.621-1.2,1.282,1.282,0,0,0,1.465,1.2,2.954,2.954,0,0,0,.977-.163l.081-1.026A2.853,2.853,0,0,1,174.141-10.23Zm-4.428-.033c-.928,0-1.481-.358-1.481-1.042,0-.765.733-1.237,2.165-1.5l1.823-.342v1.123C172.22-10.947,171.015-10.263,169.713-10.263Zm10.761-7.326a2.945,2.945,0,0,0-2.735,1.433l-.081-1.27h-1.14v8.14h1.3v-4.33a2.5,2.5,0,0,1,2.523-2.833c1.123,0,2,.6,2,2.409v4.754h1.3V-14.5A2.915,2.915,0,0,0,180.474-17.589Zm10.5,7.261h-2.7c-.635,0-1.074-.309-1.074-.879,0-.553.26-.879.912-1.026a4.819,4.819,0,0,0,1.254.147c1.954,0,3.337-1.14,3.337-2.751a2.5,2.5,0,0,0-1.026-2.051c.228-.586.847-.9,1.937-.9l-.293-1.14a2.122,2.122,0,0,0-2.3,1.66,4.138,4.138,0,0,0-1.66-.326c-1.954,0-3.337,1.14-3.337,2.751a2.524,2.524,0,0,0,1.188,2.23,1.614,1.614,0,0,0-1.221,1.6,1.684,1.684,0,0,0,1.107,1.5,1.692,1.692,0,0,0-1.433,1.579c0,1.221,1.172,2.149,3.744,2.149,2.2,0,4.021-.993,4.021-2.6C193.432-9.563,192.52-10.328,190.974-10.328Zm-1.612-6.2a1.794,1.794,0,0,1,1.986,1.693,1.794,1.794,0,0,1-1.986,1.693,1.794,1.794,0,0,1-1.986-1.693A1.794,1.794,0,0,1,189.362-16.53Zm.2,9.654c-1.791,0-2.686-.521-2.686-1.319,0-.619.537-1.009,1.563-1.009h2.181c1.221,0,1.612.374,1.612.96C192.227-7.528,191.283-6.877,189.557-6.877Zm12.633-6.9a3.527,3.527,0,0,0-3.647-3.809c-2.458,0-3.842,1.6-3.842,4.233s1.481,4.233,3.94,4.233a3.485,3.485,0,0,0,3.386-1.774l-1.091-.57a2.2,2.2,0,0,1-2.3,1.2,2.579,2.579,0,0,1-2.654-2.6h6.137A6.405,6.405,0,0,0,202.19-13.779Zm-3.647-2.67c1.384,0,2.214.928,2.393,2.426H196A2.453,2.453,0,0,1,198.544-16.449Z" transform="translate(-1.972 57.817)" fill="rgba(102,102,102,0.69)"/>
    </g>
  </g>
</svg>
