<svg xmlns="http://www.w3.org/2000/svg" width="70" height="69.999" viewBox="0 0 70 69.999">
  <g id="job-seeking" transform="translate(-8 -8)">
    <g id="Group_865" data-name="Group 865" transform="translate(9.129 9.129)">
      <rect id="Rectangle_581" data-name="Rectangle 581" width="47.419" height="60.967" transform="translate(0 0)" fill="#d4def3"/>
    </g>
    <g id="Group_866" data-name="Group 866" transform="translate(9.129 9.129)">
      <rect id="Rectangle_582" data-name="Rectangle 582" width="44.032" height="60.967" transform="translate(0 0)" fill="#f5faff"/>
    </g>
    <g id="Group_867" data-name="Group 867" transform="translate(38.484 40.742)">
      <rect id="Rectangle_583" data-name="Rectangle 583" width="13.548" height="22.58" transform="translate(0)" fill="#93cdf6"/>
    </g>
    <g id="Group_868" data-name="Group 868" transform="translate(61.065 17.032)">
      <path id="Path_557" data-name="Path 557" d="M384,94.58V72h15.806V94.58h-3.387L391.9,99.1V94.58Z" transform="translate(-384 -72)" fill="#f5faff"/>
    </g>
    <g id="Group_869" data-name="Group 869" transform="translate(59.935 59.935)">
      <path id="Path_558" data-name="Path 558" d="M376,380.516l11.615,11.615a2.734,2.734,0,0,0,1.933.8h0a2.724,2.724,0,0,0,1.933-.8l.663-.663a2.734,2.734,0,0,0,.8-1.933h0a2.724,2.724,0,0,0-.8-1.933L380.516,376" transform="translate(-376 -376)" fill="#e3e7f2"/>
    </g>
    <g id="Group_870" data-name="Group 870" transform="translate(43 43)">
      <ellipse id="Ellipse_56" data-name="Ellipse 56" cx="11.29" cy="11.29" rx="11.29" ry="11.29" transform="translate(0)" fill="#93cdf6"/>
    </g>
    <g id="Group_871" data-name="Group 871" transform="translate(48.645 48.645)">
      <ellipse id="Ellipse_57" data-name="Ellipse 57" cx="5.645" cy="5.645" rx="5.645" ry="5.645" fill="#d4def3"/>
    </g>
    <g id="Group_872" data-name="Group 872" transform="translate(48.645 48.927)">
      <ellipse id="Ellipse_58" data-name="Ellipse 58" cx="3.952" cy="5.363" rx="3.952" ry="5.363" fill="#e3e7f2"/>
    </g>
    <g id="Group_873" data-name="Group 873" transform="translate(8 8)">
      <path id="Path_559" data-name="Path 559" d="M56.548,71.225H9.129A1.132,1.132,0,0,1,8,70.1V9.129A1.132,1.132,0,0,1,9.129,8H56.548a1.132,1.132,0,0,1,1.129,1.129V43H55.419V10.258H10.258V68.967H55.419V65.58h2.258V70.1A1.132,1.132,0,0,1,56.548,71.225Z" transform="translate(-8 -8)" fill="#0089e8"/>
    </g>
    <g id="Group_874" data-name="Group 874" transform="translate(15.903 12.516)">
      <rect id="Rectangle_584" data-name="Rectangle 584" width="6.774" height="2.258" transform="translate(0 0)" fill="#0089e8"/>
    </g>
    <g id="Group_875" data-name="Group 875" transform="translate(24.935 12.516)">
      <path id="Path_560" data-name="Path 560" d="M132.516,51.29A4.529,4.529,0,0,1,128,46.774V44.516a4.516,4.516,0,0,1,9.032,0v2.258A4.529,4.529,0,0,1,132.516,51.29Zm0-9.032a2.265,2.265,0,0,0-2.258,2.258v2.258a2.258,2.258,0,0,0,4.516,0V44.516A2.265,2.265,0,0,0,132.516,42.258Z" transform="translate(-128 -40)" fill="#0089e8"/>
    </g>
    <g id="Group_876" data-name="Group 876" transform="translate(36.226 12.516)">
      <path id="Path_561" data-name="Path 561" d="M213.645,46.774h-4.516A1.132,1.132,0,0,1,208,45.645V41.129A1.132,1.132,0,0,1,209.129,40h4.516a3.387,3.387,0,1,1,0,6.774Zm-3.387-2.258h3.387a1.129,1.129,0,1,0,0-2.258h-3.387Z" transform="translate(-208 -40)" fill="#0089e8"/>
    </g>
    <g id="Group_877" data-name="Group 877" transform="translate(36.226 17.032)">
      <path id="Path_562" data-name="Path 562" d="M213.645,78.774h-4.516A1.132,1.132,0,0,1,208,77.645V73.129A1.132,1.132,0,0,1,209.129,72h4.516a3.387,3.387,0,1,1,0,6.774Zm-3.387-2.258h3.387a1.129,1.129,0,1,0,0-2.258h-3.387Z" transform="translate(-208 -72)" fill="#0089e8"/>
    </g>
    <g id="Group_878" data-name="Group 878" transform="translate(11.712 13.645)">
      <path id="Path_563" data-name="Path 563" d="M39.621,58.161H37.362a1.143,1.143,0,0,1-.8-.325L34.3,55.579l1.595-1.595L37.828,55.9h1.327l1.595-1.595V48h2.258v6.774a1.143,1.143,0,0,1-.325.8l-2.258,2.258A1.143,1.143,0,0,1,39.621,58.161Z" transform="translate(-34.3 -48)" fill="#0089e8"/>
    </g>
    <g id="Group_879" data-name="Group 879" transform="translate(12.516 26.064)">
      <rect id="Rectangle_585" data-name="Rectangle 585" width="18.065" height="2.258" transform="translate(0)" fill="#0089e8"/>
    </g>
    <g id="Group_880" data-name="Group 880" transform="translate(12.516 30.58)">
      <rect id="Rectangle_586" data-name="Rectangle 586" width="40.645" height="2.258" transform="translate(0)" fill="#0089e8"/>
    </g>
    <g id="Group_881" data-name="Group 881" transform="translate(12.516 35.097)">
      <rect id="Rectangle_587" data-name="Rectangle 587" width="40.645" height="2.258" transform="translate(0)" fill="#0089e8"/>
    </g>
    <g id="Group_882" data-name="Group 882" transform="translate(12.516 39.613)">
      <rect id="Rectangle_588" data-name="Rectangle 588" width="4.516" height="2.258" transform="translate(0)" fill="#0089e8"/>
    </g>
    <g id="Group_883" data-name="Group 883" transform="translate(19.29 39.613)">
      <rect id="Rectangle_589" data-name="Rectangle 589" width="15.806" height="2.258" transform="translate(0)" fill="#0089e8"/>
    </g>
    <g id="Group_884" data-name="Group 884" transform="translate(12.516 44.129)">
      <rect id="Rectangle_590" data-name="Rectangle 590" width="4.516" height="2.258" transform="translate(0)" fill="#0089e8"/>
    </g>
    <g id="Group_885" data-name="Group 885" transform="translate(19.29 44.129)">
      <rect id="Rectangle_591" data-name="Rectangle 591" width="15.806" height="2.258" transform="translate(0)" fill="#0089e8"/>
    </g>
    <g id="Group_886" data-name="Group 886" transform="translate(12.516 48.645)">
      <rect id="Rectangle_592" data-name="Rectangle 592" width="4.516" height="2.258" transform="translate(0)" fill="#0089e8"/>
    </g>
    <g id="Group_887" data-name="Group 887" transform="translate(19.29 48.645)">
      <rect id="Rectangle_593" data-name="Rectangle 593" width="15.806" height="2.258" transform="translate(0)" fill="#0089e8"/>
    </g>
    <g id="Group_888" data-name="Group 888" transform="translate(12.516 53.161)">
      <rect id="Rectangle_594" data-name="Rectangle 594" width="4.516" height="2.258" transform="translate(0)" fill="#0089e8"/>
    </g>
    <g id="Group_889" data-name="Group 889" transform="translate(19.29 53.161)">
      <rect id="Rectangle_595" data-name="Rectangle 595" width="15.806" height="2.258" transform="translate(0)" fill="#0089e8"/>
    </g>
    <g id="Group_890" data-name="Group 890" transform="translate(12.516 57.677)">
      <rect id="Rectangle_596" data-name="Rectangle 596" width="4.516" height="2.258" transform="translate(0)" fill="#0089e8"/>
    </g>
    <g id="Group_891" data-name="Group 891" transform="translate(19.29 57.677)">
      <rect id="Rectangle_597" data-name="Rectangle 597" width="15.806" height="2.258" transform="translate(0)" fill="#0089e8"/>
    </g>
    <g id="Group_892" data-name="Group 892" transform="translate(12.516 62.193)">
      <rect id="Rectangle_598" data-name="Rectangle 598" width="4.516" height="2.258" transform="translate(0)" fill="#0089e8"/>
    </g>
    <g id="Group_893" data-name="Group 893" transform="translate(19.29 62.193)">
      <rect id="Rectangle_599" data-name="Rectangle 599" width="15.806" height="2.258" transform="translate(0)" fill="#0089e8"/>
    </g>
    <g id="Group_894" data-name="Group 894" transform="translate(37.355 39.613)">
      <path id="Path_564" data-name="Path 564" d="M226.161,256.838h-9.032A1.132,1.132,0,0,1,216,255.709v-22.58A1.132,1.132,0,0,1,217.129,232h13.548a1.132,1.132,0,0,1,1.129,1.129v2.258h-2.258v-1.129h-11.29V254.58h7.9Z" transform="translate(-216 -232)" fill="#0089e8"/>
    </g>
    <g id="Group_895" data-name="Group 895" transform="translate(41.871 41.871)">
      <path id="Path_565" data-name="Path 565" d="M260.419,272.838a12.419,12.419,0,1,1,12.419-12.419A12.438,12.438,0,0,1,260.419,272.838Zm0-22.58a10.161,10.161,0,1,0,10.161,10.161A10.173,10.173,0,0,0,260.419,250.258Z" transform="translate(-248 -248)" fill="#0089e8"/>
    </g>
    <g id="Group_896" data-name="Group 896" transform="translate(47.516 47.516)">
      <path id="Path_566" data-name="Path 566" d="M294.774,301.548a6.774,6.774,0,1,1,6.774-6.774A6.776,6.776,0,0,1,294.774,301.548Zm0-11.29a4.516,4.516,0,1,0,4.516,4.516A4.529,4.529,0,0,0,294.774,290.258Z" transform="translate(-288 -288)" fill="#0089e8"/>
    </g>
    <g id="Group_897" data-name="Group 897" transform="translate(59.145 59.145)">
      <path id="Path_567" data-name="Path 567" d="M384.739,389.255a3.786,3.786,0,0,1-2.724-1.129L370.4,376.511l1.595-1.595,11.615,11.615a1.628,1.628,0,0,0,2.258,0l.663-.663a1.6,1.6,0,0,0,0-2.258l-11.615-11.615,1.595-1.595,11.615,11.615a3.85,3.85,0,0,1,0,5.448l-.663.663A3.786,3.786,0,0,1,384.739,389.255Z" transform="translate(-370.4 -370.4)" fill="#0089e8"/>
    </g>
    <g id="Group_898" data-name="Group 898" transform="translate(64.452 20.419)">
      <rect id="Rectangle_600" data-name="Rectangle 600" width="9.032" height="2.258" transform="translate(0)" fill="#0089e8"/>
    </g>
    <g id="Group_899" data-name="Group 899" transform="translate(64.452 24.935)">
      <rect id="Rectangle_601" data-name="Rectangle 601" width="9.032" height="2.258" transform="translate(0)" fill="#0089e8"/>
    </g>
    <g id="Group_900" data-name="Group 900" transform="translate(64.452 29.451)">
      <rect id="Rectangle_602" data-name="Rectangle 602" width="9.032" height="2.258" transform="translate(0)" fill="#0089e8"/>
    </g>
    <g id="Group_901" data-name="Group 901" transform="translate(64.452 33.968)">
      <rect id="Rectangle_603" data-name="Rectangle 603" width="9.032" height="2.258" transform="translate(0 0)" fill="#0089e8"/>
    </g>
    <g id="Group_902" data-name="Group 902" transform="translate(59.935 15.903)">
      <path id="Path_568" data-name="Path 568" d="M385.032,93.355a1.2,1.2,0,0,1-.437-.085,1.123,1.123,0,0,1-.692-1.044V88.838h-6.774A1.132,1.132,0,0,1,376,87.709V65.129A1.132,1.132,0,0,1,377.129,64h15.806a1.132,1.132,0,0,1,1.129,1.129v22.58a1.132,1.132,0,0,1-1.129,1.129h-2.921l-4.192,4.191A1.11,1.11,0,0,1,385.032,93.355Zm-6.774-6.774h6.774a1.132,1.132,0,0,1,1.129,1.129V89.5l2.583-2.583a1.119,1.119,0,0,1,.8-.325h2.258V66.258H378.258Z" transform="translate(-376 -64)" fill="#0089e8"/>
    </g>
  </g>
</svg>
