<svg xmlns="http://www.w3.org/2000/svg" xmlns:xlink="http://www.w3.org/1999/xlink" width="690" height="615.5" viewBox="0 0 690 615.5">
  <defs>
    <linearGradient id="linear-gradient" x1="0.5" x2="0.5" y2="1" gradientUnits="objectBoundingBox">
      <stop offset="0" stop-color="#0280d7"/>
      <stop offset="1" stop-color="#01406c"/>
    </linearGradient>
    <filter id="photo-1544723795-3fb6469f5b39" x="191" y="175" width="296" height="296" filterUnits="userSpaceOnUse">
      <feOffset dy="3" input="SourceAlpha"/>
      <feGaussianBlur stdDeviation="3" result="blur"/>
      <feFlood flood-opacity="0.161"/>
      <feComposite operator="in" in2="blur"/>
      <feComposite in="SourceGraphic"/>
    </filter>
    <linearGradient id="linear-gradient-2" x1="1" x2="0" y2="1" gradientUnits="objectBoundingBox">
      <stop offset="0" stop-color="#0089e8"/>
      <stop offset="1" stop-color="#056fb9"/>
    </linearGradient>
    <filter id="photo-1492627223639-6e980361988c" x="122" y="0" width="144" height="144" filterUnits="userSpaceOnUse">
      <feOffset dy="3" input="SourceAlpha"/>
      <feGaussianBlur stdDeviation="3" result="blur-2"/>
      <feFlood flood-opacity="0.161"/>
      <feComposite operator="in" in2="blur-2"/>
      <feComposite in="SourceGraphic"/>
    </filter>
    <filter id="photo-1492627223639-6e980361988c-2" x="541" y="141" width="149" height="149" filterUnits="userSpaceOnUse">
      <feOffset dy="3" input="SourceAlpha"/>
      <feGaussianBlur stdDeviation="3" result="blur-3"/>
      <feFlood flood-opacity="0.161"/>
      <feComposite operator="in" in2="blur-3"/>
      <feComposite in="SourceGraphic"/>
    </filter>
    <filter id="photo-1492627223639-6e980361988c-3" x="489" y="441" width="131" height="131" filterUnits="userSpaceOnUse">
      <feOffset dy="3" input="SourceAlpha"/>
      <feGaussianBlur stdDeviation="3" result="blur-4"/>
      <feFlood flood-opacity="0.161"/>
      <feComposite operator="in" in2="blur-4"/>
      <feComposite in="SourceGraphic"/>
    </filter>
    <filter id="photo-1492627223639-6e980361988c-4" x="0" y="365" width="152" height="152" filterUnits="userSpaceOnUse">
      <feOffset dy="3" input="SourceAlpha"/>
      <feGaussianBlur stdDeviation="3" result="blur-5"/>
      <feFlood flood-opacity="0.161"/>
      <feComposite operator="in" in2="blur-5"/>
      <feComposite in="SourceGraphic"/>
    </filter>
  </defs>
  <g id="searching-img" transform="translate(-2677.5 -18162.5)">
    <g id="Group_1045" data-name="Group 1045" transform="translate(2379 16582)">
      <g id="Group_1043" data-name="Group 1043">
        <g id="Path_2649" data-name="Path 2649" transform="translate(349 1612)" fill="none">
          <path d="M288,0C447.058,0,576,128.942,576,288S447.058,576,288,576,0,447.058,0,288,128.942,0,288,0Z" stroke="none"/>
          <path d="M 288 0.5 C 268.4931335449219 0.5 248.9987182617188 2.4652099609375 230.0582275390625 6.34100341796875 C 211.5992736816406 10.11822509765625 193.4425048828125 15.75445556640625 176.0922241210938 23.093017578125 C 159.0567016601563 30.29833984375 142.6260070800781 39.21661376953125 127.25634765625 49.6002197265625 C 112.0326538085938 59.8851318359375 97.7169189453125 71.69671630859375 84.706787109375 84.706787109375 C 71.69671630859375 97.7169189453125 59.8851318359375 112.0326538085938 49.6002197265625 127.25634765625 C 39.21661376953125 142.6260070800781 30.29833984375 159.0567016601563 23.093017578125 176.0922241210938 C 15.75445556640625 193.4425048828125 10.11822509765625 211.5992736816406 6.34100341796875 230.0582275390625 C 2.4652099609375 248.9987182617188 0.5 268.4931335449219 0.5 288 C 0.5 307.5068664550781 2.4652099609375 327.0012817382813 6.34100341796875 345.9417724609375 C 10.11822509765625 364.4006958007813 15.75445556640625 382.5574951171875 23.093017578125 399.9077758789063 C 30.29833984375 416.9432983398438 39.21661376953125 433.3739929199219 49.6002197265625 448.74365234375 C 59.8851318359375 463.9673461914063 71.69671630859375 478.2830810546875 84.706787109375 491.293212890625 C 97.7169189453125 504.3032836914063 112.0326538085938 516.1148681640625 127.25634765625 526.3997802734375 C 142.6260070800781 536.7833251953125 159.0567016601563 545.70166015625 176.0922241210938 552.906982421875 C 193.4425048828125 560.2455444335938 211.5992736816406 565.8817749023438 230.0582275390625 569.6589965820313 C 248.9987182617188 573.5347900390625 268.4931335449219 575.5 288 575.5 C 307.5068664550781 575.5 327.0012817382813 573.5347900390625 345.9417724609375 569.6589965820313 C 364.4006958007813 565.8817749023438 382.5574951171875 560.2455444335938 399.9077758789063 552.906982421875 C 416.9432983398438 545.70166015625 433.3739929199219 536.7833251953125 448.74365234375 526.3997802734375 C 463.9673461914063 516.1148681640625 478.2830810546875 504.3032836914063 491.293212890625 491.293212890625 C 504.3032836914063 478.2830810546875 516.1148681640625 463.9673461914063 526.3997802734375 448.74365234375 C 536.7833251953125 433.3739929199219 545.70166015625 416.9432983398438 552.906982421875 399.9077758789063 C 560.2455444335938 382.5574951171875 565.8817749023438 364.4006958007813 569.6589965820313 345.9417724609375 C 573.5347900390625 327.0012817382813 575.5 307.5068664550781 575.5 288 C 575.5 268.4931335449219 573.5347900390625 248.9987182617188 569.6589965820313 230.0582275390625 C 565.8817749023438 211.5992736816406 560.2455444335938 193.4425048828125 552.906982421875 176.0922241210938 C 545.70166015625 159.0567016601563 536.7833251953125 142.6260070800781 526.3997802734375 127.25634765625 C 516.1148681640625 112.0326538085938 504.3032836914063 97.7169189453125 491.293212890625 84.706787109375 C 478.2830810546875 71.69671630859375 463.9673461914063 59.8851318359375 448.74365234375 49.6002197265625 C 433.3739929199219 39.21661376953125 416.9432983398438 30.29833984375 399.9077758789063 23.093017578125 C 382.5574951171875 15.75445556640625 364.4006958007813 10.11822509765625 345.9417724609375 6.34100341796875 C 327.0012817382813 2.4652099609375 307.5068664550781 0.5 288 0.5 M 288 0 C 447.0579833984375 0 576 128.9419860839844 576 288 C 576 447.0579833984375 447.0579833984375 576 288 576 C 128.9419860839844 576 0 447.0579833984375 0 288 C 0 128.9419860839844 128.9419860839844 0 288 0 Z" stroke="none" fill="#666"/>
        </g>
        <g id="Path_2651" data-name="Path 2651" transform="translate(439 1702)" fill="#f4f4f4" opacity="0.306">
          <path d="M 197.687255859375 395.12451171875 C 184.2911987304688 395.12451171875 170.9037017822266 393.7749633789063 157.8964996337891 391.1132507324219 C 145.2200012207031 388.5193176269531 132.7510070800781 384.6487121582031 120.8358535766602 379.6090087890625 C 109.1369552612305 374.6607971191406 97.85330963134766 368.5362548828125 87.29840850830078 361.4054565429688 C 76.84370422363281 354.3424072265625 67.01255798339844 346.23095703125 58.07805633544922 337.2964477539063 C 49.1435546875 328.3619689941406 41.0321044921875 318.5307922363281 33.96905517578125 308.0761108398438 C 26.83825492858887 297.5212097167969 20.71370506286621 286.237548828125 15.76550579071045 274.5386657714844 C 10.72580623626709 262.6235046386719 6.85520601272583 250.1545104980469 4.261255741119385 237.4780120849609 C 1.599555850028992 224.4708099365234 0.2500058710575104 211.0833129882813 0.2500058710575104 197.687255859375 C 0.2500058710575104 184.2911987304688 1.599555850028992 170.9037017822266 4.261255741119385 157.8964996337891 C 6.85520601272583 145.2200012207031 10.72580623626709 132.7510070800781 15.76550579071045 120.8358535766602 C 20.71370506286621 109.1369552612305 26.83825492858887 97.85330963134766 33.96905517578125 87.29840850830078 C 41.0321044921875 76.84370422363281 49.1435546875 67.01255798339844 58.07805633544922 58.07805633544922 C 67.01255798339844 49.1435546875 76.84370422363281 41.0321044921875 87.29840850830078 33.96905517578125 C 97.85330963134766 26.83825492858887 109.1369552612305 20.71370506286621 120.8358535766602 15.76550579071045 C 132.7510070800781 10.72580623626709 145.2200012207031 6.85520601272583 157.8964996337891 4.261255741119385 C 170.9037017822266 1.599555850028992 184.2911987304688 0.2500058710575104 197.687255859375 0.2500058710575104 C 211.0833129882813 0.2500058710575104 224.4708099365234 1.599555850028992 237.4780120849609 4.261255741119385 C 250.1545104980469 6.85520601272583 262.6235046386719 10.72580623626709 274.5386657714844 15.76550579071045 C 286.237548828125 20.71370506286621 297.5212097167969 26.83825492858887 308.0761108398438 33.96905517578125 C 318.5307922363281 41.0321044921875 328.3619689941406 49.1435546875 337.2964477539063 58.07805633544922 C 346.23095703125 67.01255798339844 354.3424072265625 76.84370422363281 361.4054565429688 87.29840850830078 C 368.5362548828125 97.85330963134766 374.6607971191406 109.1369552612305 379.6090087890625 120.8358535766602 C 384.6487121582031 132.7510070800781 388.5193176269531 145.2200012207031 391.1132507324219 157.8964996337891 C 393.7749633789063 170.9037017822266 395.12451171875 184.2911987304688 395.12451171875 197.687255859375 C 395.12451171875 211.0833129882813 393.7749633789063 224.4708099365234 391.1132507324219 237.4780120849609 C 388.5193176269531 250.1545104980469 384.6487121582031 262.6235046386719 379.6090087890625 274.5386657714844 C 374.6607971191406 286.237548828125 368.5362548828125 297.5212097167969 361.4054565429688 308.0761108398438 C 354.3424072265625 318.5307922363281 346.23095703125 328.3619689941406 337.2964477539063 337.2964477539063 C 328.3619689941406 346.23095703125 318.5307922363281 354.3424072265625 308.0761108398438 361.4054565429688 C 297.5212097167969 368.5362548828125 286.237548828125 374.6607971191406 274.5386657714844 379.6090087890625 C 262.6235046386719 384.6487121582031 250.1545104980469 388.5193176269531 237.4780120849609 391.1132507324219 C 224.4708099365234 393.7749633789063 211.0833129882813 395.12451171875 197.687255859375 395.12451171875 Z" stroke="none"/>
          <path d="M 197.687255859375 0.5 C 184.3079986572266 0.5 170.9373626708984 1.847869873046875 157.9466094970703 4.50616455078125 C 145.2863006591797 7.09686279296875 132.8331909179688 10.96249389648438 120.9332580566406 15.99575805664063 C 109.2492065429688 20.93771362304688 97.9798583984375 27.054443359375 87.4383544921875 34.17620849609375 C 76.99679565429688 41.2303466796875 67.17807006835938 49.33154296875 58.25479125976563 58.25479125976563 C 49.33154296875 67.17807006835938 41.2303466796875 76.99679565429688 34.17620849609375 87.4383544921875 C 27.054443359375 97.9798583984375 20.93771362304688 109.2492065429688 15.99575805664063 120.9332580566406 C 10.96249389648438 132.8331909179688 7.09686279296875 145.2863006591797 4.50616455078125 157.9466094970703 C 1.847869873046875 170.9373626708984 0.5 184.3079986572266 0.5 197.687255859375 C 0.5 211.0665130615234 1.847869873046875 224.4371490478516 4.50616455078125 237.4279022216797 C 7.09686279296875 250.0882110595703 10.96249389648438 262.5413208007813 15.99575805664063 274.4412536621094 C 20.93771362304688 286.1253051757813 27.054443359375 297.3946533203125 34.17620849609375 307.9361572265625 C 41.2303466796875 318.3777160644531 49.33154296875 328.1964721679688 58.25479125976563 337.1196899414063 C 67.17807006835938 346.04296875 76.99679565429688 354.1441650390625 87.4383544921875 361.1983032226563 C 97.9798583984375 368.320068359375 109.2492065429688 374.4367980957031 120.9332580566406 379.3787536621094 C 132.8331909179688 384.4120178222656 145.2863006591797 388.2776489257813 157.9466094970703 390.8683471679688 C 170.9373626708984 393.5266418457031 184.3079986572266 394.87451171875 197.687255859375 394.87451171875 C 211.0665130615234 394.87451171875 224.4371490478516 393.5266418457031 237.4279022216797 390.8683471679688 C 250.0882110595703 388.2776489257813 262.5413208007813 384.4120178222656 274.4412536621094 379.3787536621094 C 286.1253051757813 374.4367980957031 297.3946533203125 368.320068359375 307.9361572265625 361.1983032226563 C 318.3777160644531 354.1441650390625 328.1964721679688 346.04296875 337.1196899414063 337.1196899414063 C 346.04296875 328.1964721679688 354.1441650390625 318.3777160644531 361.1983032226563 307.9361572265625 C 368.320068359375 297.3946533203125 374.4367980957031 286.1253051757813 379.3787536621094 274.4412536621094 C 384.4120178222656 262.5413208007813 388.2776489257813 250.0882110595703 390.8683471679688 237.4279022216797 C 393.5266418457031 224.4371490478516 394.87451171875 211.0665130615234 394.87451171875 197.687255859375 C 394.87451171875 184.3079986572266 393.5266418457031 170.9373626708984 390.8683471679688 157.9466094970703 C 388.2776489257813 145.2863006591797 384.4120178222656 132.8331909179688 379.3787536621094 120.9332580566406 C 374.4367980957031 109.2492065429688 368.320068359375 97.9798583984375 361.1983032226563 87.4383544921875 C 354.1441650390625 76.99679565429688 346.04296875 67.17807006835938 337.1196899414063 58.25479125976563 C 328.1964721679688 49.33154296875 318.3777160644531 41.2303466796875 307.9361572265625 34.17620849609375 C 297.3946533203125 27.054443359375 286.1253051757813 20.93771362304688 274.4412536621094 15.99575805664063 C 262.5413208007813 10.96249389648438 250.0882110595703 7.09686279296875 237.4279022216797 4.50616455078125 C 224.4371490478516 1.847869873046875 211.0665130615234 0.5 197.687255859375 0.5 M 197.687255859375 0 C 306.8669128417969 0 395.37451171875 88.50759887695313 395.37451171875 197.687255859375 C 395.37451171875 306.8669128417969 306.8669128417969 395.37451171875 197.687255859375 395.37451171875 C 88.50759887695313 395.37451171875 0 306.8669128417969 0 197.687255859375 C 0 88.50759887695313 88.50759887695313 0 197.687255859375 0 Z" stroke="none" fill="#666"/>
        </g>
      </g>
      <g id="Group_1044" data-name="Group 1044">
        <g id="Path_2652" data-name="Path 2652" transform="translate(500 1763)" fill="#fff">
          <path d="M 136.6195678710938 273.1891479492188 C 127.3534698486328 273.1891479492188 118.0932006835938 272.2556457519531 109.0960006713867 270.4145202636719 C 100.3274688720703 268.6202392578125 91.70246887207031 265.94287109375 83.46053314208984 262.4568481445313 C 75.36823272705078 259.0340881347656 67.563232421875 254.7976684570313 60.26226806640625 249.865234375 C 53.03066635131836 244.9796295166016 46.23036956787109 239.368896484375 40.05030059814453 233.1888275146484 C 33.87023544311523 227.0087738037109 28.25950050354004 220.2084655761719 23.3739013671875 212.9768676757813 C 18.44146728515625 205.6759033203125 14.20503425598145 197.8708953857422 10.78230094909668 189.7785949707031 C 7.296267986297607 181.5366668701172 4.618901252746582 172.9116668701172 2.824601173400879 164.1431274414063 C 0.9835011959075928 155.1459350585938 0.05000120401382446 145.8856658935547 0.05000120401382446 136.6195678710938 C 0.05000120401382446 127.3534698486328 0.9835011959075928 118.0932006835938 2.824601173400879 109.0960006713867 C 4.618901252746582 100.3274688720703 7.296267986297607 91.70246887207031 10.78230094909668 83.46053314208984 C 14.20503425598145 75.36823272705078 18.44146728515625 67.563232421875 23.3739013671875 60.26226806640625 C 28.25950050354004 53.03066635131836 33.87023544311523 46.23036956787109 40.05030059814453 40.05030059814453 C 46.23036956787109 33.87023544311523 53.03066635131836 28.25950050354004 60.26226806640625 23.3739013671875 C 67.563232421875 18.44146728515625 75.36823272705078 14.20503425598145 83.46053314208984 10.78230094909668 C 91.70246887207031 7.296267986297607 100.3274688720703 4.618901252746582 109.0960006713867 2.824601173400879 C 118.0932006835938 0.9835011959075928 127.3534698486328 0.05000120401382446 136.6195678710938 0.05000120401382446 C 145.8856658935547 0.05000120401382446 155.1459350585938 0.9835011959075928 164.1431274414063 2.824601173400879 C 172.9116668701172 4.618901252746582 181.5366668701172 7.296267986297607 189.7785949707031 10.78230094909668 C 197.8708953857422 14.20503425598145 205.6759033203125 18.44146728515625 212.9768676757813 23.3739013671875 C 220.2084655761719 28.25950050354004 227.0087738037109 33.87023544311523 233.1888275146484 40.05030059814453 C 239.368896484375 46.23036956787109 244.9796295166016 53.03066635131836 249.865234375 60.26226806640625 C 254.7976684570313 67.563232421875 259.0340881347656 75.36823272705078 262.4568481445313 83.46053314208984 C 265.94287109375 91.70246887207031 268.6202392578125 100.3274688720703 270.4145202636719 109.0960006713867 C 272.2556457519531 118.0932006835938 273.1891479492188 127.3534698486328 273.1891479492188 136.6195678710938 C 273.1891479492188 145.8856658935547 272.2556457519531 155.1459350585938 270.4145202636719 164.1431274414063 C 268.6202392578125 172.9116668701172 265.94287109375 181.5366668701172 262.4568481445313 189.7785949707031 C 259.0340881347656 197.8708953857422 254.7976684570313 205.6759033203125 249.865234375 212.9768676757813 C 244.9796295166016 220.2084655761719 239.368896484375 227.0087738037109 233.1888275146484 233.1888275146484 C 227.0087738037109 239.368896484375 220.2084655761719 244.9796295166016 212.9768676757813 249.865234375 C 205.6759033203125 254.7976684570313 197.8708953857422 259.0340881347656 189.7785949707031 262.4568481445313 C 181.5366668701172 265.94287109375 172.9116668701172 268.6202392578125 164.1431274414063 270.4145202636719 C 155.1459350585938 272.2556457519531 145.8856658935547 273.1891479492188 136.6195678710938 273.1891479492188 Z" stroke="none"/>
          <path d="M 136.6195678710938 0.100006103515625 C 127.3568420410156 0.100006103515625 118.0999298095703 1.033172607421875 109.1060028076172 2.87359619140625 C 100.3406982421875 4.667236328125 91.71890258789063 7.343597412109375 83.48004150390625 10.82833862304688 C 75.39070129394531 14.24984741210938 67.58853149414063 18.48469543457031 60.29023742675781 23.41532897949219 C 53.06126403808594 28.29913330078125 46.26347351074219 33.9078369140625 40.08566284179688 40.08566284179688 C 33.9078369140625 46.26347351074219 28.29913330078125 53.06126403808594 23.41532897949219 60.29023742675781 C 18.48469543457031 67.58853149414063 14.24984741210938 75.39070129394531 10.82833862304688 83.48004150390625 C 7.343597412109375 91.71890258789063 4.667236328125 100.3406982421875 2.87359619140625 109.1060028076172 C 1.033172607421875 118.0999298095703 0.100006103515625 127.3568420410156 0.100006103515625 136.6195678710938 C 0.100006103515625 145.8822937011719 1.033172607421875 155.1391906738281 2.87359619140625 164.1331329345703 C 4.667236328125 172.8984375 7.343597412109375 181.5202331542969 10.82833862304688 189.7590942382813 C 14.24984741210938 197.8484344482422 18.48469543457031 205.6506042480469 23.41532897949219 212.9488983154297 C 28.29913330078125 220.1778717041016 33.9078369140625 226.9756622314453 40.08566284179688 233.1534729003906 C 46.26347351074219 239.331298828125 53.06126403808594 244.9400024414063 60.29023742675781 249.8238067626953 C 67.58853149414063 254.7544403076172 75.39070129394531 258.9892883300781 83.48004150390625 262.4107971191406 C 91.71890258789063 265.8955383300781 100.3406982421875 268.5718994140625 109.1060028076172 270.3655395507813 C 118.0999298095703 272.2059631347656 127.3568420410156 273.1391296386719 136.6195678710938 273.1391296386719 C 145.8822937011719 273.1391296386719 155.1391906738281 272.2059631347656 164.1331329345703 270.3655395507813 C 172.8984375 268.5718994140625 181.5202331542969 265.8955383300781 189.7590942382813 262.4107971191406 C 197.8484344482422 258.9892883300781 205.6506042480469 254.7544403076172 212.9488983154297 249.8238067626953 C 220.1778717041016 244.9400024414063 226.9756622314453 239.331298828125 233.1534729003906 233.1534729003906 C 239.331298828125 226.9756622314453 244.9400024414063 220.1778717041016 249.8238067626953 212.9488983154297 C 254.7544403076172 205.6506042480469 258.9892883300781 197.8484344482422 262.4107971191406 189.7590942382813 C 265.8955383300781 181.5202331542969 268.5718994140625 172.8984375 270.3655395507813 164.1331329345703 C 272.2059631347656 155.1391906738281 273.1391296386719 145.8822937011719 273.1391296386719 136.6195678710938 C 273.1391296386719 127.3568420410156 272.2059631347656 118.0999298095703 270.3655395507813 109.1060028076172 C 268.5718994140625 100.3406982421875 265.8955383300781 91.71890258789063 262.4107971191406 83.48004150390625 C 258.9892883300781 75.39070129394531 254.7544403076172 67.58853149414063 249.8238067626953 60.29023742675781 C 244.9400024414063 53.06126403808594 239.331298828125 46.26347351074219 233.1534729003906 40.08566284179688 C 226.9756622314453 33.9078369140625 220.1778717041016 28.29913330078125 212.9488983154297 23.41532897949219 C 205.6506042480469 18.48469543457031 197.8484344482422 14.24984741210938 189.7590942382813 10.82833862304688 C 181.5202331542969 7.343597412109375 172.8984375 4.667236328125 164.1331329345703 2.87359619140625 C 155.1391906738281 1.033172607421875 145.8822937011719 0.100006103515625 136.6195678710938 0.100006103515625 M 136.6195678710938 0 C 212.0724639892578 0 273.2391357421875 61.16667175292969 273.2391357421875 136.6195678710938 C 273.2391357421875 212.0724639892578 212.0724639892578 273.2391357421875 136.6195678710938 273.2391357421875 C 61.16667175292969 273.2391357421875 0 212.0724639892578 0 136.6195678710938 C 0 61.16667175292969 61.16667175292969 0 136.6195678710938 0 Z" stroke="none" fill="#666"/>
        </g>
      </g>
    </g>
    <g transform="matrix(1, 0, 0, 1, 2677.5, 18162.5)" filter="url(#photo-1544723795-3fb6469f5b39)">
      <circle id="photo-1544723795-3fb6469f5b39-2" data-name="photo-1544723795-3fb6469f5b39" cx="135" cy="135" r="135" transform="translate(204 185)" stroke="#fff" stroke-linecap="round" stroke-width="8" fill="url(#linear-gradient)"/>
    </g>
    <circle id="photo-1544723795-3fb6469f5b39-3" data-name="photo-1544723795-3fb6469f5b39" cx="133" cy="133" r="133" transform="translate(2883 18349)" fill="url(#linear-gradient-2)"/>
    <g transform="matrix(1, 0, 0, 1, 2677.5, 18162.5)" filter="url(#photo-1492627223639-6e980361988c)">
      <circle id="photo-1492627223639-6e980361988c-5" data-name="photo-1492627223639-6e980361988c" cx="59" cy="59" r="59" transform="translate(135 10)" fill="#fafafa" stroke="#fff" stroke-linecap="round" stroke-width="8"/>
    </g>
    <g transform="matrix(1, 0, 0, 1, 2677.5, 18162.5)" filter="url(#photo-1492627223639-6e980361988c-2)">
      <circle id="photo-1492627223639-6e980361988c-6" data-name="photo-1492627223639-6e980361988c" cx="61.5" cy="61.5" r="61.5" transform="translate(554 151)" fill="#fafafa" stroke="#fff" stroke-linecap="round" stroke-width="8"/>
    </g>
    <g transform="matrix(1, 0, 0, 1, 2677.5, 18162.5)" filter="url(#photo-1492627223639-6e980361988c-3)">
      <circle id="photo-1492627223639-6e980361988c-7" data-name="photo-1492627223639-6e980361988c" cx="52.5" cy="52.5" r="52.5" transform="translate(502 451)" fill="#fafafa" stroke="#fff" stroke-linecap="round" stroke-width="8"/>
    </g>
    <g transform="matrix(1, 0, 0, 1, 2677.5, 18162.5)" filter="url(#photo-1492627223639-6e980361988c-4)">
      <circle id="photo-1492627223639-6e980361988c-8" data-name="photo-1492627223639-6e980361988c" cx="63" cy="63" r="63" transform="translate(13 375)" fill="#fafafa" stroke="#fff" stroke-linecap="round" stroke-width="8"/>
    </g>
    <g id="Group_1816" data-name="Group 1816" transform="translate(-765.328 -567.039)">
      <path id="Path_423" data-name="Path 423" d="M975.674,439.838a4.286,4.286,0,0,0-.082.722,28.867,28.867,0,0,1-.763,5.134c-.021.083-.062.144-.1.268H945.594a9.372,9.372,0,0,1-1.752-18.6,13.484,13.484,0,0,1,1.814-.165h28.307c.083.289.165.536.247.783a34.418,34.418,0,0,1,1.319,6.639c.041.33.021.66.041.99.021.165.062.33.082.474C975.674,437.344,975.674,438.581,975.674,439.838Z" transform="translate(2890.758 18638.85)" fill="#e7f2ff"/>
      <path id="Path_424" data-name="Path 424" d="M975.8,186.361a3.841,3.841,0,0,0-.082.68,32.713,32.713,0,0,1-1.526,7.979,1.9,1.9,0,0,1-.1.206H945.724a9.373,9.373,0,0,1-1.835-18.576,12.591,12.591,0,0,1,1.959-.186c9.463-.021,18.926,0,28.389,0h.68c.144.7.289,1.34.392,2.02a22.73,22.73,0,0,1,.412,3.732,2.4,2.4,0,0,0,.082.371Z" transform="translate(2890.629 18836.764)" fill="#e7f2ff"/>
      <path id="Path_425" data-name="Path 425" d="M313.4,307.245a4.4,4.4,0,0,0,.186-.557,10.141,10.141,0,1,1,.041,3.361c-.062-.289-.144-.557-.227-.845Z" transform="translate(3381.928 18740.795)" fill="#fff"/>
      <path id="Path_426" data-name="Path 426" d="M636.355,47.4l.8.186a10.133,10.133,0,1,1-3.587,0c.309-.062.619-.124.907-.186Z" transform="translate(3135.807 18938.639)" fill="#fff"/>
      <path id="Path_427" data-name="Path 427" d="M459.449,569.039c-.33-.062-.68-.124-1.01-.186a10.123,10.123,0,1,1,3.958-.041c-.454.1-.907.165-1.361.247C460.5,569.039,459.965,569.039,459.449,569.039Z" transform="translate(3274.022 18542.984)" fill="#fff"/>
      <path id="Path_428" data-name="Path 428" d="M579.493,301.9a34.134,34.134,0,0,1-8.061,9.34c1.01.948,2.041,1.835,2.989,2.8.948.99,1.856,2.062,2.721,3.134a25.827,25.827,0,0,1,2.33,3.443c-.165.021-.268.041-.371.062H453.05a10.021,10.021,0,0,1-4.824-1.072,9.223,9.223,0,0,1-4.989-7.278,9.321,9.321,0,0,1,7.319-10.185,11.217,11.217,0,0,1,2.35-.227c6.68-.021,13.36,0,20.04,0H578.709C578.936,301.9,579.142,301.9,579.493,301.9Z" transform="translate(3280.985 18737.752)" fill="#e7f2ff"/>
      <path id="Path_429" data-name="Path 429" d="M689.243,552.5c-.082.206-.124.33-.165.412a33.333,33.333,0,0,1-18.349,16.762,27.812,27.812,0,0,1-5.567,1.505,3.362,3.362,0,0,1-.639.062H588.881a9.364,9.364,0,0,1-1.237-18.638,10.11,10.11,0,0,1,1.588-.1H689.243Z" transform="translate(3173.132 18539.949)" fill="#e7f2ff"/>
      <path id="Path_430" data-name="Path 430" d="M828.157,70.041c-.247.021-.412.021-.577.021H764.2a9.1,9.1,0,0,1-8.494-4.907A9.329,9.329,0,0,1,762.2,51.486a10.793,10.793,0,0,1,1.814-.165q19.143,0,38.306-.021a14.816,14.816,0,0,1,3.567.433,32.788,32.788,0,0,1,20.081,14.391c.721,1.093,1.3,2.247,1.938,3.381C827.992,69.649,828.033,69.794,828.157,70.041Z" transform="translate(3034.586 18935.551)" fill="#e7f2ff"/>
      <path id="Path_431" data-name="Path 431" d="M637.018,195.441h-48.14a9.364,9.364,0,0,1-1.711-18.576,10.8,10.8,0,0,1,1.814-.165H637C637.1,177.05,637.142,194.678,637.018,195.441Z" transform="translate(3172.331 18836.57)" fill="#e7f2ff"/>
      <path id="Path_432" data-name="Path 432" d="M760.479,446.02c-.144,0-.309.021-.474.021H744.419a9.373,9.373,0,0,1-1.3-18.659,9.553,9.553,0,0,1,1.34-.082h16C760.583,427.712,760.583,445.546,760.479,446.02Z" transform="translate(3049.212 18638.768)" fill="#e7f2ff"/>
      <path id="Path_433" data-name="Path 433" d="M460.164,193.128a10.164,10.164,0,1,1,10.164-10.164A10.171,10.171,0,0,1,460.164,193.128Z" transform="translate(3274.111 18839.664)" fill="#fff"/>
      <path id="Path_434" data-name="Path 434" d="M626.028,433.564A10.164,10.164,0,1,1,615.864,423.4,10.158,10.158,0,0,1,626.028,433.564Z" transform="translate(3151.22 18641.867)" fill="#fff"/>
    </g>
    <g id="Group_2009" data-name="Group 2009">
      <text id="Exchange_business" data-name="Exchange business" transform="translate(2797 18322)" fill="#222" font-size="18" font-family="WorkSans-Regular, Work Sans" letter-spacing="-0.044em"><tspan x="0" y="0">Exchange business</tspan></text>
      <text id="Share_meaningful_Connections" data-name="Share meaningful
Connections" transform="translate(3293 18467)" fill="#222" font-size="18" font-family="WorkSans-Regular, Work Sans" letter-spacing="-0.044em"><tspan x="-71.559" y="0">Share meaningful</tspan><tspan x="-51.084" y="25">Connections</tspan></text>
      <text id="Enhance_bottom-line" data-name="Enhance 
bottom-line" transform="translate(3232 18749)" fill="#222" font-size="18" font-family="WorkSans-Regular, Work Sans" letter-spacing="-0.044em"><tspan x="-38.151" y="0">Enhance </tspan><tspan x="-48.654" y="25">bottom-line</tspan></text>
      <text id="Access_to_global_Market_place" data-name="Access to global
Market place" transform="translate(2753 18695)" fill="#222" font-size="18" font-family="WorkSans-Regular, Work Sans" letter-spacing="-0.044em"><tspan x="-66.672" y="0">Access to global</tspan><tspan x="-52.74" y="25">Market place</tspan></text>
      <g id="searching-icon-01" transform="translate(2828.729 18192.291)">
        <rect id="Rectangle_674" data-name="Rectangle 674" width="52.17" height="26.844" transform="translate(16.272 25.839)" fill="#056fb9"/>
        <path id="Path_3714" data-name="Path 3714" d="M140.969,203.006h-37.51a4.423,4.423,0,0,0-4.449-4.449V185.515a4.423,4.423,0,0,0,4.449-4.449h37.51a4.423,4.423,0,0,0,4.449,4.449v12.992A4.532,4.532,0,0,0,140.969,203.006Z" transform="translate(-79.857 -152.8)" fill="#fcfcfd"/>
        <g id="Group_1823" data-name="Group 1823" transform="translate(23.501 30.238)">
          <circle id="Ellipse_76" data-name="Ellipse 76" cx="8.998" cy="8.998" r="8.998" transform="translate(9.858)" fill="#056fb9"/>
          <circle id="Ellipse_77" data-name="Ellipse 77" cx="2.123" cy="2.123" r="2.123" transform="translate(0 6.875)" fill="#056fb9"/>
          <circle id="Ellipse_78" data-name="Ellipse 78" cx="2.123" cy="2.123" r="2.123" transform="translate(33.466 6.875)" fill="#056fb9"/>
        </g>
        <path id="Path_3715" data-name="Path 3715" d="M237.56,211.687a3.711,3.711,0,0,0-3.69-3.69,1.567,1.567,0,0,1,0-3.134,1.464,1.464,0,0,1,1.163.506A1.073,1.073,0,1,0,236.6,203.9a4.171,4.171,0,0,0-1.618-1.011v-.758a1.062,1.062,0,1,0-2.123,0v.708a3.693,3.693,0,0,0,1.062,7.229,1.567,1.567,0,0,1,0,3.134,1.464,1.464,0,0,1-1.163-.506,1.073,1.073,0,0,0-1.567,1.466,4.17,4.17,0,0,0,1.618,1.011v.758a1.062,1.062,0,1,0,2.123,0v-.708A3.7,3.7,0,0,0,237.56,211.687Z" transform="translate(-191.513 -169.822)" fill="#fcfcfd"/>
        <path id="Path_3716" data-name="Path 3716" d="M126.083,23.057l-.1.051V27H92.567v9.352h33.415v3.893l.1.051L140.9,31.651Z" transform="translate(-74.374 -18.349)" fill="#93cdf6"/>
        <path id="Path_3717" data-name="Path 3717" d="M140.9,374.55H107.48v-3.892l-.1-.051-14.812,8.645,14.812,8.594.1-.051V383.9H140.9Z" transform="translate(-74.374 -314.082)" fill="#93cdf6"/>
      </g>
      <g id="business_1_" data-name="business (1)" transform="translate(3238.242 18320.482)">
        <path id="Path_3718" data-name="Path 3718" d="M240.408,88.988l.36,6.432h5.754l-.508-8.484Z" transform="translate(-191.567 -69.561)" fill="#f0b97c"/>
        <path id="Path_3719" data-name="Path 3719" d="M242.928,116.836c.1.554-.509.417-1.335.51a.375.375,0,0,1-.125.641c-.5.152-3.325.294-2.886-.871a.575.575,0,0,1,.228-.279H237.24v11.756h7.32V116.836Z" transform="translate(-189.052 -93.298)" fill="#e8e7e8"/>
        <g id="Group_1824" data-name="Group 1824" transform="translate(41.679 90.785)">
          <path id="Path_3720" data-name="Path 3720" d="M210.875,443.1s-2.658,3.544-5.029,4.6c0,0-1.1,1.437,2.036,1.437a12,12,0,0,0,3.449-.646l1.365-1.2.815.336,2.3-.5V445.8a3.9,3.9,0,0,0-.312-2.706h-4.622Z" transform="translate(-205.659 -443.096)" fill="#4d535f"/>
          <path id="Path_3721" data-name="Path 3721" d="M261.909,448.788s-.431,1.461.215,1.844l-.178,1.149,1.232.791v-.407l.336.407c-.118,1.765,2.625,2.621,4.411,1.954a.9.9,0,0,0,.575-.746h0a3.454,3.454,0,0,0-.565-2.306l-.062-.092a7.292,7.292,0,0,0-.834-1.027,2.15,2.15,0,0,1-.627-1.566Z" transform="translate(-250.203 -447.615)" fill="#4d535f"/>
        </g>
        <path id="Path_3722" data-name="Path 3722" d="M244.232,126.036c-1.588,2.5-1.232,3.764-.888,10.2l1.889-.382.745-6.653a19.492,19.492,0,0,0-.835-3.949l-.939.29Z" transform="translate(-193.664 -99.982)" fill="#0089e8"/>
        <path id="Path_3723" data-name="Path 3723" d="M245.024,120.3a3.215,3.215,0,0,0,1.89-.106l.744.458-1.231,1.262a.923.923,0,0,0-1.059.1l-.888-1.26Z" transform="translate(-194.8 -95.962)" fill="#056fb9"/>
        <g id="Group_1825" data-name="Group 1825" transform="translate(48.545 21.443)">
          <path id="Path_3724" data-name="Path 3724" d="M239.429,110.648a3.325,3.325,0,0,0,.413,3.934c1.106-1.565,1.449-1.557,1.909-1.7v-.391A9.679,9.679,0,0,1,239.429,110.648Z" transform="translate(-238.974 -109.828)" fill="#fdfeff"/>
          <path id="Path_3725" data-name="Path 3725" d="M255.814,106.672s1.912.174-1.411,4.507c-.522-.619-1.2-1.475-1.959-1.455v-.391l.465-.121A12.458,12.458,0,0,0,255.814,106.672Z" transform="translate(-249.668 -106.672)" fill="#fdfeff"/>
        </g>
        <path id="Path_3726" data-name="Path 3726" d="M235.246,67.783a2.911,2.911,0,0,0,3.313.881,3.331,3.331,0,0,0,1.4-1.249l.764-1.228V65.08s.644.161.876-.644c0,0,.385-1.288.151-1.549,0,0-.589-.785-.787.6V60.574c-.087-.35-.421-1.992-.782-1.992-.141,0-2.313-.362-2.495-.362s-2.193.422-2.193.422l-1.3,1.745a14.487,14.487,0,0,0-.232,2.84s-1.05-.988-.268,1.276c0,0,.133.891.542.9A3.777,3.777,0,0,0,235.246,67.783Z" transform="translate(-186.012 -46.763)" fill="#f7cfa3"/>
        <g id="Group_1826" data-name="Group 1826" transform="translate(43.734 10.518)">
          <path id="Path_3727" data-name="Path 3727" d="M233.587,58.991a6.794,6.794,0,0,1-.221-2.8c.785-2.193,3.4-2.454,3.4-2.454a3.721,3.721,0,0,1,4.4,2.334c.582.523.27,1.67.27,1.67v1.267c-.536.04-.553.865-.553.865-.18-.078-.252-.49-.281-.841a1.2,1.2,0,0,0-.351-.746,1.959,1.959,0,0,1-.311-1.571c.252-.437-.491-.725-.944-.561a5.242,5.242,0,0,1-2.627.2c-.74-.129-.785.387-1.415.623-.66.248-.157.864-.619,1.316-.313.307-.219,1.108-.219,1.585h-.149s-.087-.357-.29-.417Z" transform="translate(-229.667 -53.668)" fill="#656d7a"/>
          <path id="Path_3728" data-name="Path 3728" d="M217.765,271.652l-.526-4.206v-6.163s.2-12.88-.935-17.115l-.672-9.725.73-8.411c2.687,0,.756-.035,9.813.2l4.44-.2.584,9.346-.322,9.668-.2,7.447-.146,14.807s-.156,1.454-.173,2.57a3.627,3.627,0,0,1-.885,2.341l-.021.025s-2.829-.75-4.275.245a13.9,13.9,0,0,0-.348-2.868,13.583,13.583,0,0,1-.449-4.284,22.6,22.6,0,0,1,.766-5.243l-.776-12.646-.949-9.181s-.813-1.8-.676,1.063v13.756l.438,3.534a12.909,12.909,0,0,1-.007,3.259,12.484,12.484,0,0,0,.245,4.732,2.847,2.847,0,0,1,.37,2.548,7.245,7.245,0,0,0-.069,2.322,5.885,5.885,0,0,1-.07,1.743A17.52,17.52,0,0,0,217.765,271.652Z" transform="translate(-215.632 -190.505)" fill="#656d7a"/>
        </g>
        <path id="Path_3729" data-name="Path 3729" d="M232.642,228.93l-.181-2.9-4.44.2c-9.057-.24-7.128-.2-9.813-.2l-.251,2.9Z" transform="translate(-173.743 -179.983)" fill="#353944"/>
        <path id="Path_3730" data-name="Path 3730" d="M233.012,197.885l-1.457-9.257-3.538,1.017-6.3-1.017h-1.7l-1.487,9.257Z" transform="translate(-174.197 -150.292)" fill="#fdfeff"/>
        <path id="Path_3731" data-name="Path 3731" d="M219.243,112.158c-.125,2.988,0,9.876-3.282,11.807l.843,6.512.023.2v.023l.031.19.137,1.056.023.137.007.076.023.2.988,7.613a.693.693,0,0,1-.593.782l-5.5.768c-2.682.547-3.282-2.271-3.282-2.271-1.224-2.765-1.694-10.173-1.694-10.173l-2.637,11.373a1.47,1.47,0,0,1-2.135,1.094L199.65,141a.694.694,0,0,1-.547-.805l1.4-7.841.054-.274.023-.137.228-1.261v-.007l.038-.2.539-3.016-3.206-.449c-1.907.129-1.406-4.65-1.406-4.65l.82-3.518a7.352,7.352,0,0,0,.2-2.158c-.071-1.254.33-1.787.418-3.062a2.605,2.605,0,0,1,.934-2.1,1.1,1.1,0,0,1,.258-.152l4.384-1.284a4,4,0,0,0,1.177-.654,3.928,3.928,0,0,0,.76-.775,42.776,42.776,0,0,0,1.649,10.994c.43-.017.353-.014.615-.023-.308-.922,1.862-7.467,2.173-8.388,1.618-2.294,1.839-3.145,1.8-3.472a7.224,7.224,0,0,0,1.276.881c2.618,1.527,2.788.964,4.338,1.5C219.441,110.821,219.243,112.158,219.243,112.158Z" transform="translate(-156.877 -86.105)" fill="#4d535f"/>
        <path id="Path_3732" data-name="Path 3732" d="M278.434,220.227h-4a.4.4,0,0,1-.4-.4l.175-1.36,4,.106.031.19.137,1.056.023.137.007.076Z" transform="translate(-218.264 -173.979)" fill="#353944"/>
        <path id="Path_3733" data-name="Path 3733" d="M279.077,219.515h-3.8a.392.392,0,0,1-.395-.395v-1.208h3.981l.023.2v.023l.03.19.137,1.056Z" transform="translate(-218.937 -173.541)" fill="#656d7a"/>
        <path id="Path_3734" data-name="Path 3734" d="M218.818,219.817a.405.405,0,0,1-.4.4H215.1l.054-.274.023-.137.228-1.261,3.244-.091Z" transform="translate(-171.472 -173.972)" fill="#353944"/>
        <g id="Group_1827" data-name="Group 1827" transform="translate(43.676 21.668)">
          <path id="Path_3735" data-name="Path 3735" d="M218.847,217.9v1.208a.4.4,0,0,1-.4.395h-3.093l.023-.137.228-1.261V218.1l.038-.2h3.205Z" transform="translate(-215.352 -195.202)" fill="#656d7a"/>
          <path id="Path_3736" data-name="Path 3736" d="M233.315,124.091l-.9.133c-2.167-2.4-3.636-9.3-3.636-9.3l1.1-.533-.835-.267a4.089,4.089,0,0,0,1.373-1.294h0a3.8,3.8,0,0,0,.758-.78,43.225,43.225,0,0,0,1.65,10.995l.191-.007c.04.145.077.276.11.393h0c.053.187.1.337.128.447C233.292,124.018,233.315,124.091,233.315,124.091Z" transform="translate(-226.009 -111.167)" fill="#656d7a"/>
          <path id="Path_3737" data-name="Path 3737" d="M254.409,110.349h.853s-4,5.939-4.581,9.987l-1.034.139-.219.03c.036-.2.129-.669.171-.877l.232-.008c-.313-1.017,2.177-8.386,2.177-8.386,1.622-2.3,1.84-3.142,1.8-3.473a6.931,6.931,0,0,0,1.278.881l.444,1.246Z" transform="translate(-242.405 -107.76)" fill="#656d7a"/>
        </g>
        <path id="Path_3738" data-name="Path 3738" d="M218.067,169.758a4.26,4.26,0,0,1,1.925-.311l.412,1.529-1.216.7-1.2.251-1.284-.468C216.7,170.634,216.574,170.025,218.067,169.758Z" transform="translate(-172.746 -135.034)" fill="#f7cfa3"/>
        <path id="Path_3739" data-name="Path 3739" d="M229.746,166s-1.288.867-.31,3.176l1.574.246.369-3.421Z" transform="translate(-182.566 -132.328)" fill="#fdfeff"/>
        <path id="Path_3740" data-name="Path 3740" d="M253.974,184.155a4.77,4.77,0,0,0,3.236-.988s1.123-.055,1.4-.818l-1.256-1.765h-2.1l-1.345,1.249Z" transform="translate(-202.288 -143.906)" fill="#f7cfa3"/>
        <path id="Path_3741" data-name="Path 3741" d="M247.164,187.5h1.615a.279.279,0,0,0,.3-.251v-3.29l-1.538-.4Z" transform="translate(-196.931 -146.266)" fill="#fdfeff"/>
        <g id="Group_1828" data-name="Group 1828" transform="translate(39.832 24.055)">
          <path id="Path_3742" data-name="Path 3742" d="M247.08,121.342c-.127,3.016,0,9.874-3.286,11.8-1.532,1.524-5.122.934-5.122.934-4.513-1.289-3.046-1-6.9-1.389.072-3.852.744-3.862.751-3.862,1.7.023,4.671-.17,6.3-.3,4.382-.457,3.629-2.795,3.629-2.795a8.574,8.574,0,0,1,2.954-6.388C247.271,120.008,247.08,121.342,247.08,121.342Z" transform="translate(-224.543 -119.344)" fill="#656d7a"/>
          <path id="Path_3743" data-name="Path 3743" d="M208.764,137.84a14.113,14.113,0,0,0-1.056,5.194l-5.926-1.115-3.618-.471c-1.9.131-1.408-4.65-1.408-4.65l.824-3.516a7.606,7.606,0,0,0,.2-2.163c-.073-1.292.336-1.815.417-3.057a2.641,2.641,0,0,1,.934-2.1c.267,1.743.887,4.868,1.974,5.61,0,0,.946,2.764.266,4.1a7.035,7.035,0,0,0,2.46,1.762C205.081,137.953,205.568,137.818,208.764,137.84Z" transform="translate(-196.698 -124.596)" fill="#656d7a"/>
        </g>
        <g id="Group_1829" data-name="Group 1829" transform="translate(40.334 26.876)">
          <path id="Path_3744" data-name="Path 3744" d="M204.52,139.119a1.729,1.729,0,0,1,1.658,1.282A4.053,4.053,0,0,0,204.52,139.119Z" transform="translate(-203.41 -137.861)" fill="#4d535f"/>
          <path id="Path_3745" data-name="Path 3745" d="M206.532,145.816a2.95,2.95,0,0,1,2.1,1.264A15.646,15.646,0,0,0,206.532,145.816Z" transform="translate(-205.008 -143.181)" fill="#4d535f"/>
          <path id="Path_3746" data-name="Path 3746" d="M203.028,154.192c.824-.321,2.713-.287,3.383,1.11C205.6,154.458,204.85,154.124,203.028,154.192Z" transform="translate(-202.226 -149.699)" fill="#4d535f"/>
          <path id="Path_3747" data-name="Path 3747" d="M199.136,175.423a21.51,21.51,0,0,0,2.177-2.433l-.009.018c.154-.369.606-.688,1.455-.594C200.963,172.582,201.975,173.552,199.136,175.423Z" transform="translate(-199.136 -164.284)" fill="#4d535f"/>
          <path id="Path_3748" data-name="Path 3748" d="M201.148,182.326c1.374.237,2.77-3.057,4.961-3.1C203.99,179.644,202.574,182.839,201.148,182.326Z" transform="translate(-200.733 -169.703)" fill="#4d535f"/>
          <path id="Path_3749" data-name="Path 3749" d="M270.308,163.017c-.485.292.345,1.163.575,1.667C269.942,164.1,269.784,162.983,270.308,163.017Z" transform="translate(-255.403 -156.836)" fill="#4d535f"/>
          <path id="Path_3750" data-name="Path 3750" d="M259.613,164.348c-.185.9,1.365,1.756,2.1,2.3C259.905,166.131,259.309,164.819,259.613,164.348Z" transform="translate(-247.088 -157.893)" fill="#4d535f"/>
          <path id="Path_3751" data-name="Path 3751" d="M283.316,158.684a2.03,2.03,0,0,1,1.04,1.508C284.3,160.126,283.356,158.743,283.316,158.684Z" transform="translate(-265.965 -153.396)" fill="#4d535f"/>
          <path id="Path_3752" data-name="Path 3752" d="M288.33,133.12c-1.468.11-2.76.275-3.334,1.354C285.26,133.216,287.172,132.836,288.33,133.12Z" transform="translate(-267.299 -133.031)" fill="#4d535f"/>
          <path id="Path_3753" data-name="Path 3753" d="M289.183,143.779c-2.388-.947-3.394-.485-4.187.266C285.955,142.5,288.15,143.023,289.183,143.779Z" transform="translate(-267.299 -140.982)" fill="#4d535f"/>
          <path id="Path_3754" data-name="Path 3754" d="M291.58,136.716a2.208,2.208,0,0,1-1.195.716,3.876,3.876,0,0,1-2.029-.031C289.181,137.331,290.7,137.44,291.58,136.716Z" transform="translate(-269.967 -135.956)" fill="#4d535f"/>
          <path id="Path_3755" data-name="Path 3755" d="M235.894,182.729c-.021.057-.041.118-.063.182-2.343-.69-.2-.334-4.575-.7,0-.141.007-.463.009-.6V181.6c.073.03.146.059.222.087l-.016.336c.43.048,2.643.366,3.036.366C234.508,182.39,235.576,182.64,235.894,182.729Z" transform="translate(-224.636 -171.589)" fill="#4d535f"/>
        </g>
        <path id="Path_3756" data-name="Path 3756" d="M148.688,438.388l.153,5.322s-.171,2.081,1.074,2.491c0,0,2.047.375,2.593-.716l.1-2.32s-.153-3.582-.6-4.315Z" transform="translate(-118.752 -348.573)" fill="#353944"/>
        <g id="Group_1830" data-name="Group 1830" transform="translate(14.158 89.524)">
          <path id="Path_3757" data-name="Path 3757" d="M149.764,445.849a3.14,3.14,0,0,0,3.6-.137l-.546-4.264H149.85Z" transform="translate(-133.764 -440.527)" fill="#f7cfa3"/>
          <path id="Path_3758" data-name="Path 3758" d="M152.576,468.805l.777-.707a.787.787,0,0,1,.949-.084l.986.62S153.719,469.556,152.576,468.805Z" transform="translate(-135.996 -461.522)" fill="#f7cfa3"/>
          <path id="Path_3759" data-name="Path 3759" d="M73.143,438.344l-1.007,4.281v1.825c1.494,1.068,2.569-.573,3.616-1.757v-2.473a1.012,1.012,0,0,1,.187-.676c.455-.513.3-.921.239-2.565Z" transform="translate(-72.136 -436.98)" fill="#f7cfa3"/>
        </g>
        <g id="Group_1831" data-name="Group 1831" transform="translate(13.758 89.69)">
          <path id="Path_3760" data-name="Path 3760" d="M70.6,463.132s1.04,1.569,3.753.12c-.254,1.643-.178,3.113-2.32,2.815a2.123,2.123,0,0,1-1.535-.222A2.738,2.738,0,0,1,70.6,463.132Z" transform="translate(-70.195 -457.907)" fill="#353944"/>
          <path id="Path_3761" data-name="Path 3761" d="M88.708,444.006h.323l.068-2.754,1.126-3.468-.648.278-.956,1.126C88.391,441.6,88.38,440.577,88.708,444.006Z" transform="translate(-84.691 -437.784)" fill="#353944"/>
        </g>
        <rect id="Rectangle_675" data-name="Rectangle 675" width="5.309" height="7.874" transform="translate(24.237 23.539)" fill="#f0b97c"/>
        <path id="Path_3762" data-name="Path 3762" d="M120.379,78.307c-3.018,2.789-2.548,7.183-.121,8.94,0,0,.486.834,2.43.382a3.564,3.564,0,0,0,2.083-1.892c1.284-2.3.952-3.081.486-7.031L123.61,77.2,122.256,77Z" transform="translate(-94.608 -61.676)" fill="#f7cfa3"/>
        <path id="Path_3763" data-name="Path 3763" d="M109.324,131.045c.374.392,1.986,2.852,5.509-.373,1.851,13.115,1.345,9.089,2.407,18.994l.349,1.1s-5.726,3.709-9.758,2.017l-1.294-.6.224-8.613.847-10.431Z" transform="translate(-85.288 -104.282)" fill="#fdfeff"/>
        <path id="Path_3764" data-name="Path 3764" d="M96.6,245.063s-1.267,5.528-.646,8.306a9.333,9.333,0,0,1,.2,1.482c.129,2.1.3,6.978-.585,10.208l-1.234,8.174s-2.159,1.543-3.342-.359a8.672,8.672,0,0,1-.038-4.287,8.3,8.3,0,0,0,.015-3.343l-.131-.622-.257-6.787a7.407,7.407,0,0,0-.223-2.231,11.049,11.049,0,0,1-.294-2.274l-.152-4.159-1.182-8.14a93.92,93.92,0,0,0-3.317,10.016,39.449,39.449,0,0,1-1.909,6.042,6.821,6.821,0,0,0-.472,1.446l-1.58,7.73-.553,2.656a6.078,6.078,0,0,0-.1,1.552c.161,3.239-3.014,4.5-4.818,3.017l.232-5.013.463-1.1.181-3.754.23-.566a39.171,39.171,0,0,1,.643-5.809,8.707,8.707,0,0,1,.542-2.722,6.058,6.058,0,0,0,.667-2.491c.48-17.445.419-3.734.693-20.338l1.824-1.642S85.7,232.355,93,229.112c2.8.9,2,.643,3.8,1.223l1.287,4.3C97.432,240.069,97.749,242.334,96.6,245.063Z" transform="translate(-61.027 -182.432)" fill="#656d7a"/>
        <path id="Path_3765" data-name="Path 3765" d="M72.12,261.111a2.529,2.529,0,0,0,3.659-.2l-.6-2.247-1.653.578Z" transform="translate(-57.966 -205.893)" fill="#353944"/>
        <path id="Path_3766" data-name="Path 3766" d="M78.355,268.844c.63,1.2.163,1.259.163,1.259a4.778,4.778,0,0,1-2.976-1.693h0c-.846-1.188.117-3.492.092-7.262l2.265.194a6.072,6.072,0,0,0,.461,2.443A4.137,4.137,0,0,1,78.355,268.844Z" transform="translate(-60.405 -207.865)" fill="#f7cfa3"/>
        <path id="Path_3767" data-name="Path 3767" d="M112.374,229.858c-5.654,3.757-12.538,3.394-14.86,1.51L97.436,231l1.054-.949s4.253,2.305,11.548-.938Z" transform="translate(-78.064 -182.429)" fill="#353944"/>
        <path id="Path_3768" data-name="Path 3768" d="M77.43,133.255c-.186.053-.374.1-.568.15a1.773,1.773,0,0,0-1.066.747,13.534,13.534,0,0,0-1.938,5.841l-.5,7.742-.523,6.174s.275,4.954-.721,5.975c0,0,3.21-1.568,3.659-.2a8.067,8.067,0,0,1,.2-3.31,14.077,14.077,0,0,0,3.236.673s.823.3,1.445-2.391l.97-8.289.013-.36.561-14.85A17.941,17.941,0,0,1,77.43,133.255Zm-.273,16.721s-.686,4.407-.934,3.262c1.089-6.75.442-2.87,1.145-7.344C77.923,146.718,77.464,148.939,77.158,149.976Z" transform="translate(-57.962 -104.666)" fill="#4d535f"/>
        <path id="Path_3769" data-name="Path 3769" d="M110.007,131.156l-.561,14.85-2.3-11.24,1.593-.673-1.181-.374,1.315-1.9A12.021,12.021,0,0,0,110.007,131.156Z" transform="translate(-85.771 -104.666)" fill="#656d7a"/>
        <g id="Group_1832" data-name="Group 1832" transform="translate(14.158 54.582)">
          <path id="Path_3770" data-name="Path 3770" d="M72.136,469.813l.777-.707a.787.787,0,0,1,.949-.084l.986.62S73.279,470.564,72.136,469.813Z" transform="translate(-72.136 -427.38)" fill="#f7cfa3"/>
          <path id="Path_3771" data-name="Path 3771" d="M175.5,267.893c-1.858,2.083-.829,2.839-1.994,4.625,0,0,.368,1.2,1-.31.866-2.963,2.153-1.274.142,1.077,0,0-1.023,1-.8,1.585-.219,1.668,1.435-.357,2.788-1.734,1.137-.9.906-2.35.906-5.685Z" transform="translate(-152.611 -267.452)" fill="#f7cfa3"/>
        </g>
        <path id="Path_3772" data-name="Path 3772" d="M154.761,160.211s-2.29-.974-2.855-.346c0,0,.547-2.67-.5-4.39l-1.719.81s-1.5.827-1.952-.743c-4.284-12.024-3.546-7.606-3.146-24.871a19.836,19.836,0,0,0,5.613,2.147c.918.209,2.184,2.784,2.39,5.773l1.036,8.943Z" transform="translate(-115.251 -104.282)" fill="#4d535f"/>
        <path id="Path_3773" data-name="Path 3773" d="M147.431,134.253l-3.107,9.554.3-13.134A14.425,14.425,0,0,0,146.7,131.7l.26,1.4-.834.2Z" transform="translate(-115.287 -104.282)" fill="#656d7a"/>
        <path id="Path_3774" data-name="Path 3774" d="M120.581,82.435c-1.2-2.733-.593-3.2-1.817-5.726-2.215-3.609-5.028-2.091-5.028-2.091-3.385,1.319-4.107,6.547-4.107,6.547-1.17,2.589.149,3.883.149,3.883a3.007,3.007,0,0,1-.3,2.564c2.3,2.162,2.79-2.866,2.117-4.256,0-2.175-.4-5.566,2.438-7.241,2.042-1.207,3.58,1.562,3.5,3.9a3.441,3.441,0,0,0,.068,1.9,5.029,5.029,0,0,1-.7,2.566c-1.493,2.894-1.291,4.4,1.361,4.68a2.774,2.774,0,0,1,.921-2.44A3.125,3.125,0,0,0,120.581,82.435Z" transform="translate(-87.359 -59.53)" fill="#353944"/>
        <g id="Group_1833" data-name="Group 1833" transform="translate(15.135 57.801)">
          <path id="Path_3775" data-name="Path 3775" d="M89.271,283.068a9.2,9.2,0,0,1,.237,3.109A11.506,11.506,0,0,1,89.271,283.068Z" transform="translate(-86.694 -283.068)" fill="#f0b97c"/>
          <path id="Path_3776" data-name="Path 3776" d="M85.585,293.588a4.389,4.389,0,0,1-.524-2.64,4.01,4.01,0,0,0,.875,2.712l-.025.02Z" transform="translate(-83.359 -289.324)" fill="#f0b97c"/>
          <path id="Path_3777" data-name="Path 3777" d="M81.194,293.838l-.041.021c-.1-.064-.2-.128-.286-.194a2.974,2.974,0,0,1,.109-1.757A2.681,2.681,0,0,0,81.194,293.838Z" transform="translate(-79.977 -290.086)" fill="#f0b97c"/>
          <path id="Path_3778" data-name="Path 3778" d="M77.165,292.057l-.05.013a1.888,1.888,0,0,1-.235-.272,2.508,2.508,0,0,1,.256-1.19A2.312,2.312,0,0,0,77.165,292.057Z" transform="translate(-76.88 -289.054)" fill="#f0b97c"/>
        </g>
        <g id="Group_1834" data-name="Group 1834" transform="translate(19.17 28.469)">
          <path id="Path_3779" data-name="Path 3779" d="M166.963,140.76c-1.816,7.617-.591,15.273,1.462,22.727C165.8,156.181,164.638,148.165,166.963,140.76Z" transform="translate(-151.436 -140.76)" fill="#353944"/>
          <path id="Path_3780" data-name="Path 3780" d="M96.851,154.431a1.434,1.434,0,0,0-.162-.449c-.094.6-.171,1.1-.237,1.517.252-5.587.263-8.579.3-14.154,0,0,.006.083.017.24s.031.385.048.676A98.576,98.576,0,0,1,96.851,154.431Z" transform="translate(-96.452 -141.224)" fill="#353944"/>
        </g>
        <path id="Path_3781" data-name="Path 3781" d="M177.389,292.312a5.4,5.4,0,0,1-2.262,2.294A9.107,9.107,0,0,0,177.389,292.312Z" transform="translate(-139.742 -232.606)" fill="#f0b97c"/>
        <g id="Group_1835" data-name="Group 1835" transform="translate(69.477 90.151)">
          <path id="Path_3782" data-name="Path 3782" d="M340.528,444.641l1.039-4.459,2.788-.162.438,3.7-1.2.632-2.821.586Z" transform="translate(-340.528 -440.02)" fill="#343943"/>
          <path id="Path_3783" data-name="Path 3783" d="M421.031,449.483l-1.092-4.172-2.932-.152-.46,3.459,1.261.592,2.966.548Z" transform="translate(-400.879 -444.101)" fill="#343943"/>
        </g>
        <path id="Path_3784" data-name="Path 3784" d="M322.148,447.9s-.774,2.668-3.162,2.98a1.069,1.069,0,0,0-.922,1c-.323.927,1.955.767,3.68.8l1.616-.319c.9-.462,1.477-.8,1.632-.881a10.581,10.581,0,0,0,1.632-.124l.654-.34s.26-1.745-.448-2.323c0,0,.2.8-.947.552a3,3,0,0,1-.822-.309c-.232-.129-.755-.283-1.332.466,0,0,.681-1.109.205-1.506C323.933,447.9,322.73,446.679,322.148,447.9Z" transform="translate(-253.193 -355.693)" fill="#896d61"/>
        <path id="Path_3785" data-name="Path 3785" d="M317.52,464.866a.463.463,0,0,0-.148.593s.557.775,2.341.63c2.694-.219,2.537.254,4.589-1.362l.411.281s1.584.162,2.051-.524a.375.375,0,0,0-.079-.616s-.443.708-2.086.5a1.868,1.868,0,0,0-1.265.617C322.075,465.695,317.76,465.917,317.52,464.866Z" transform="translate(-252.633 -368.802)" fill="#424854"/>
        <path id="Path_3786" data-name="Path 3786" d="M420.008,452.528a4.25,4.25,0,0,0,3.323,2.788,1.08,1.08,0,0,1,.97.94s.216.552-.948.7c-4.887.085-4.3-.15-6.333-1.072a12.413,12.413,0,0,1-1.716-.116l-.688-.318s-.273-1.633.472-2.174c0,0-.213.75,1,.516a3.394,3.394,0,0,0,.864-.289c.244-.121.794-.265,1.4.436,0,0-.716-1.037-.216-1.408C418.131,452.528,419.4,451.388,420.008,452.528Z" transform="translate(-329.83 -359.397)" fill="#896d61"/>
        <path id="Path_3787" data-name="Path 3787" d="M423.762,468.409a.412.412,0,0,1,.156.555s-.585.726-2.461.589c-2.922-.212-2.7.216-4.824-1.274l-.432.263s-1.665.152-2.156-.491c0,0-.354-.294.082-.576,0,0,.466.662,2.193.47a2.091,2.091,0,0,1,1.329.577,7.873,7.873,0,0,0,2.9.545S423.551,469.232,423.762,468.409Z" transform="translate(-329.308 -371.666)" fill="#424854"/>
        <path id="Path_3788" data-name="Path 3788" d="M355.894,118.494l-.178,7.817v2.605h6.159l.148-11.4Z" transform="translate(-283.109 -93.838)" fill="#f0b97c"/>
        <path id="Path_3789" data-name="Path 3789" d="M333.09,160.983l6.332.922h5.252l3.452-.105s-.486-5.482-.367-6.189-.373-9.082-.326-9.256,1.115-4.264,1.115-4.264l-4.189-3.166-1.286,1.713-.545,1.08-2.476.183-1.406-.331-.527-1.192-.776-1.163-.788.754-2.309,3.091c-2.139,7.113-1.229,4.162-1.229,13.557C333.016,157.063,333.09,160.983,333.09,160.983Z" transform="translate(-264.935 -110.833)" fill="#e8e7e8"/>
        <path id="Path_3790" data-name="Path 3790" d="M349.082,77.925s-.219-2.285,1.684-2.358c0,0,1.04-2.9,6.751.073,0,0-.381.03-.381.249a3.018,3.018,0,0,1,.982.742.352.352,0,0,0-.319.1c1,1.908.1,4.19-.22,5.21l.027.251-1.4.166s-2.224-.027-2.55,0S350,82.288,350,82.288l-.591-.1C349,80.194,349.082,81.092,349.082,77.925Z" transform="translate(-277.836 -59.529)" fill="#656c7a"/>
        <path id="Path_3791" data-name="Path 3791" d="M360.943,160.906l-1.627,11.4,1.469,3.7,1.73-3.436-.114-11.618-.1-1.221-1.167.5Z" transform="translate(-285.966 -127.349)" fill="#0089e8"/>
        <path id="Path_3792" data-name="Path 3792" d="M363.124,151.952l1.339-1.794.288-.034.517.115.978,1.011a5.33,5.33,0,0,1-.821,2.075s-.886.611-1.459-.043A2.651,2.651,0,0,0,363.124,151.952Z" transform="translate(-288.99 -119.725)" fill="#056fb9"/>
        <g id="Group_1836" data-name="Group 1836" transform="translate(72.378 27.351)">
          <path id="Path_3793" data-name="Path 3793" d="M354.949,135.332s0,.77,3.037,3.049c0,0-1.762,1.628-1.762,2.665C356.225,141.046,353.7,137.672,354.949,135.332Z" transform="translate(-354.604 -135.332)" fill="#fdfeff"/>
          <path id="Path_3794" data-name="Path 3794" d="M374.118,136.528s-.435.893-3.1,2.8c0,0,1.782,1.571,1.707,2.665C372.722,142,375.942,137.76,374.118,136.528Z" transform="translate(-367.633 -136.281)" fill="#fdfeff"/>
        </g>
        <path id="Path_3795" data-name="Path 3795" d="M329.4,247.22l13.345.583,2.562,5.441-.432,1.278,2.014,14.99,1.955,9.28,1.943,11.1s-3.98,1.244-5.8.9c0,0-.2-6.07-1-6.716a15.971,15.971,0,0,1-1.095-5.05l-1.674-5.4a1.127,1.127,0,0,1-.019-.6h0a1.112,1.112,0,0,0-.148-.875,1.555,1.555,0,0,1-.317-1.1,1.029,1.029,0,0,0-.078-.734,2.389,2.389,0,0,1-.4-1.226c.078-.587-2.793-9.677-2.793-9.677s-.2-1.758-1.758-1.542l-1.2,10.735a4.02,4.02,0,0,0-.114,1.95,1.075,1.075,0,0,1,0,.606l-.141.456c-.493,1.078.368,1.67.308,2.783-.1,1.816-.335,6.688-.077,7.261l.187,8.588c-2.06.129-3.6-1.3-5.807-.923V275.314a7.711,7.711,0,0,0-.18-1.667,19.146,19.146,0,0,1-.454-5.23l-.4-14.12-.72-1.269Z" transform="translate(-260.4 -196.808)" fill="#4d535f"/>
        <path id="Path_3796" data-name="Path 3796" d="M350.163,94.763l1.444,1.953a1.736,1.736,0,0,0,.862.628,1.872,1.872,0,0,0,1.234,0,1.607,1.607,0,0,0,.68-.528l1.693-2.156a7.367,7.367,0,0,0,.646-1.882s.222.538.615-.331a3.477,3.477,0,0,0,.453-2.353s-.57-.7-.832,1.047l-.068.715-.225-.088a6.277,6.277,0,0,0-.068-2.408l-.039-1.39s-.352-1.693-2.3-.93a2.888,2.888,0,0,1-2.427-.108s-1.977-.5-2.027,1.057a6.928,6.928,0,0,1-.265,1.84l.068,1.83-.176.294s.117-2.075-.832-2.193c0,0-.382.078-.088,1.488a2.936,2.936,0,0,0,.548,1.517s.345.509.45-.108A6.4,6.4,0,0,0,350.163,94.763Z" transform="translate(-277.302 -69.485)" fill="#f7cfa3"/>
        <path id="Path_3797" data-name="Path 3797" d="M349.6,244.4s-3.21.194-6.779.1c-.733-.017-1.48-.049-2.217-.093a23.062,23.062,0,0,1-5.312-.827l.6-1.228a29.485,29.485,0,0,0,4.71.74c.685.063,1.428.1,2.217.124a33.573,33.573,0,0,0,6.422-.443Z" transform="translate(-266.894 -192.949)" fill="#222"/>
        <path id="Path_3798" data-name="Path 3798" d="M363.281,246.072v1.283c-.733-.017-1.48-.049-2.217-.093v-1.314C361.749,246.011,362.493,246.052,363.281,246.072Z" transform="translate(-287.354 -195.798)" fill="#93cdf6"/>
        <path id="Path_3799" data-name="Path 3799" d="M319.473,158.078a3.447,3.447,0,0,0-.519.805c-1.093,2.234-1.355,6.689-1.355,6.689l-3.379-1.248c.8-1.965,2.7-11.26,2.7-11.26,1.172-4.584-1.2-8.211-.218-15a14.432,14.432,0,0,1,3.821-1.411,2.388,2.388,0,0,0,.937-.463c.09-.069.183-.139.277-.2a0,0,0,0,0,0,0,5.01,5.01,0,0,1,1.163-.528C321.66,151.838,322.014,152.324,319.473,158.078Z" transform="translate(-250.165 -108.083)" fill="#4d535f"/>
        <path id="Path_3800" data-name="Path 3800" d="M321.419,255.994a1.885,1.885,0,0,0,1.44-.088,4.784,4.784,0,0,1,1.861-2.933l-.925-.126a4.875,4.875,0,0,0-1.289-.08c-.139.106-1.289,2.007-1.289,2.007Z" transform="translate(-255.719 -201.186)" fill="#656d7a"/>
        <path id="Path_3801" data-name="Path 3801" d="M394.018,164.834l-2.463,1.12-2.075-5.361q-.078-.145-.156-.312c-1.953-4.192-2.469-14.709-3.2-23.864a.334.334,0,0,1,.079.014c.135.038.642-.192,1.082.2a.033.033,0,0,1,.017.014,1.08,1.08,0,0,0,.128.118l.011.011a2.4,2.4,0,0,0,.9.457,26.744,26.744,0,0,1,5.381,2.141C389.217,154.459,394.018,164.834,394.018,164.834Z" transform="translate(-307.246 -108.828)" fill="#4d535f"/>
        <path id="Path_3802" data-name="Path 3802" d="M404.708,252.9a3.079,3.079,0,0,0,3.43,2.983l.354-1.289-.935-1.542-1.857-.268Z" transform="translate(-322.003 -201.222)" fill="#656d7a"/>
        <path id="Path_3803" data-name="Path 3803" d="M401.616,254.193l2.529-.265,1.547,2.125-1.484,2.114S402.572,254.589,401.616,254.193Z" transform="translate(-319.548 -202.133)" fill="#f7cfa3"/>
        <path id="Path_3804" data-name="Path 3804" d="M404.708,249.352l.485-.707.253-.329,2.439.943,1.226,1.116-.19.518-.783,1.44A4.8,4.8,0,0,0,404.708,249.352Z" transform="translate(-322.003 -197.678)" fill="#fff"/>
        <path id="Path_3805" data-name="Path 3805" d="M322.2,253.676s.5,1.881,1.2,2.185a15.639,15.639,0,0,1,1.636-3.6l-1.707-1.047Z" transform="translate(-256.501 -199.98)" fill="#f7cfa3"/>
        <path id="Path_3806" data-name="Path 3806" d="M319.571,251.654l-.683-1.5.872-1.491,1.226-.96.859-.431.454.152.571,1.214S319.622,250.126,319.571,251.654Z" transform="translate(-253.871 -196.846)" fill="#fff"/>
        <path id="Path_3807" data-name="Path 3807" d="M337.014,158.072a3.446,3.446,0,0,0-.519.805l-.18.059c1.363-2.044,1.836-7.373,1.836-7.373.325-2.811-1.629-9.355-1.629-9.355l2.341-1.065-2.341-.5a24.916,24.916,0,0,1,2.756-4.655,0,0,0,0,0,0,0,5.008,5.008,0,0,1,1.162-.528C339.2,151.831,339.556,152.318,337.014,158.072Z" transform="translate(-267.707 -108.077)" fill="#656d7a"/>
        <g id="Group_1837" data-name="Group 1837" transform="translate(62.4 29.985)">
          <path id="Path_3808" data-name="Path 3808" d="M310.548,163.107l2.243,6.371a4.314,4.314,0,0,0-3.832,3l-2.331-7.536c-1.214-2.331.479-8.462.479-8.462,1.989-8.371,3.222-8.369,3.222-8.369C309.359,154.845,311.7,158.567,310.548,163.107Z" transform="translate(-306.19 -148.112)" fill="#4d535f"/>
          <path id="Path_3809" data-name="Path 3809" d="M409.3,150.812s.955.6,2.036,4.685l2.478,8.517s.908,1.78-1.327,5.619l-3.189,4.989s.333-2.757-3.545-3.2l3.131-6.946-1.472-2.582A40.057,40.057,0,0,1,409.3,150.812Z" transform="translate(-385.234 -150.255)" fill="#4d535f"/>
        </g>
        <path id="Path_3810" data-name="Path 3810" d="M390.172,142.817s-2.1,7.266-1.926,9.141c0,0,.457,5.091,1.083,8.328-1.953-4.192-2.469-14.709-3.2-23.864a.335.335,0,0,1,.079.014c.135.038.642-.192,1.082.2a.032.032,0,0,1,.017.014c.041.038.087.076.128.118l.011.011a13.95,13.95,0,0,1,2.732,4.551l-2.4.571Z" transform="translate(-307.249 -108.832)" fill="#656d7a"/>
      </g>
      <g id="planet-earth" transform="translate(2702.334 18530.215)">
        <path id="Path_3811" data-name="Path 3811" d="M48.289,136.586C22.114,148.957,3.362,164.259,6.422,170.705l13.869-6.576c-2.019-4.3,11.329-14.911,29.821-23.636s35.16-12.306,37.244-8.009l13.869-6.576C98.165,119.462,74.464,124.215,48.289,136.586Z" transform="translate(-3.429 -78.77)" fill="#0089e8"/>
        <g id="Group_1838" data-name="Group 1838" transform="translate(17.644 36.785)">
          <circle id="Ellipse_80" data-name="Ellipse 80" cx="32.751" cy="32.751" r="32.751" fill="#6eb1e1"/>
          <circle id="Ellipse_81" data-name="Ellipse 81" cx="32.751" cy="32.751" r="32.751" fill="#6eb1e1"/>
        </g>
        <g id="Group_1839" data-name="Group 1839" transform="translate(17.839 40.244)">
          <path id="Path_3812" data-name="Path 3812" d="M279.446,144.366c.26.26.521.456.846.781q-1.172.2-2.149.391c-.065,0-.2-.2-.26-.326a2.333,2.333,0,0,0-.716.26,3.956,3.956,0,0,0-1.042.586c-.456.391-.521.391-.912-.13a4.158,4.158,0,0,1,.651-.26,7.082,7.082,0,0,1-.912-.325v1.3c-.846-.2-1.367.2-1.3.912-.391-.065-.716-.2-1.042-.26v.13l.456.456c-.651,0-.977-.2-1.107-.586-.065-.26-.2-.586-.26-.846a2.818,2.818,0,0,0,.325.065,4.513,4.513,0,0,0,1.3.2c.26,0,.521-.326.781-.456a4.724,4.724,0,0,0-.521-.586c-.977-.456-2.018-.781-3-1.172a.673.673,0,0,1,.26-.065,1.187,1.187,0,0,0-.716-.325,3.714,3.714,0,0,0-.846.065c-.2,0-.391-.065-.521,0a12.189,12.189,0,0,1-1.433.456c-.456.065-.781.2-.912.651-.2,0-.456-.065-.651-.065v.13a1.424,1.424,0,0,1,.326.2c-.391.456-.716.912-1.107,1.367a7.4,7.4,0,0,1-1.237,1.237c-1.172.716-1.237.781-1.042,2.018,0,.13.13.2.13.325.13.586.456.716.912.325.2-.13.456-.325.651-.456a14.907,14.907,0,0,1,.651,1.5,3.6,3.6,0,0,1-.521.391,2.2,2.2,0,0,1,.2.521,4.1,4.1,0,0,0,.26-.586,1.484,1.484,0,0,0,1.237-.456c.26-.586.456-1.107.716-1.758a.778.778,0,0,1-.326-1.172c.13-.26.456-.391.651-.586a2.9,2.9,0,0,0,.521-.716c.2-.586.781-.716,1.3-.2a3.932,3.932,0,0,1-.521.521c-.456.391-.977.781-.781,1.563.13.521.391.651.781.651.325,0,.586-.2.912-.2.26,0,.521.065.781.065v.26c-.586.065-1.237.2-1.823.26.13.456.2.781.26,1.107-.065,0-.13.065-.2.065-.13-.13-.325-.26-.651-.521-.13.586-.2.977-.26,1.433-.26.065-.521.586-.912.13a.321.321,0,0,0-.2.065c-.521.521-1.237.2-1.823.26-.13,0-.391-.26-.586-.391v-.13c.065,0,.13.065.2.065,0-.391-.065-.846-.065-1.172-1.237.325-.325,1.172-.456,1.628-.521.325-.977.521-1.367.781-.456.391-.846.846-1.3,1.237-.13.13-.326.13-.456.2-.065,0-.13.065-.2.13-.13.065-.26.2-.391.26-.2.065-.391,0-.716.065l.325.325c.26.2.651.391.781.651a2.377,2.377,0,0,1,0,1.172c0,.065-.456.13-.716.13h-1.628v2.6c.456.2.781.391,1.107.521a4.473,4.473,0,0,1,.521-.2c.781-.13.977-.391,1.107-1.107a1.368,1.368,0,0,1,.456-.716c.326-.2.716-.326.586-.846,0-.065.325-.26.456-.2.521.26.846-.065,1.237-.26a.51.51,0,0,1,.521.065,17.678,17.678,0,0,1,1.563,1.563,3.891,3.891,0,0,1,.391.716c-.26.13-.586.2-.846.325a2.3,2.3,0,0,1-.391.065,3.181,3.181,0,0,1,.846.521c.26-.521.456-.977.781-1.563a1.59,1.59,0,0,0,.456.065,2.064,2.064,0,0,1-.391-.326c-.521-.456-1.042-.912-1.563-1.433a.6.6,0,0,1-.065-.651c.2-.26.26,0,.456.13.521.456,1.042.846,1.563,1.237a1.424,1.424,0,0,1,.2.326c.26.651.456,1.3.716,1.888a.494.494,0,0,0,.26.13c.2-.26.326-.456.456-.651-.13-.26-.325-.586-.456-.846.2,0,.326,0,.391-.065.456-.326.781-.521.846.325a1.238,1.238,0,0,0,.325.846,2.837,2.837,0,0,0,.977.521,1.771,1.771,0,0,0,.586,0c.2,0,.391.065.521,0,.2-.065.456-.13.846-.26-.2.781-.325,1.433-.521,2.018-.065.2-.26.391-.391.391a6.754,6.754,0,0,1-1.628,0,8.661,8.661,0,0,1-1.823-.651.64.64,0,0,0-.977.456c0,.13-.326.456-.326.391-.391-.2-.781-.521-1.172-.716a1.308,1.308,0,0,0-.521-.26c-.391-.13-.781-.26-1.107-.391.065-.065.13-.065.2-.13a6.274,6.274,0,0,0,0-1.107c0-.065-.521-.065-.781-.065-.065,0-.2-.065-.26,0a16,16,0,0,0-2.539.586,1.712,1.712,0,0,1-1.5,0c-.326.391-.716.651-.977.977a1.636,1.636,0,0,0-.391.912,1.22,1.22,0,0,1-.781,1.172,1.727,1.727,0,0,0-.391.325,19.622,19.622,0,0,0-1.042,2.018.572.572,0,0,0-.065.456,9.323,9.323,0,0,1,.065,1.888,2.06,2.06,0,0,0,.521,2.084,8.168,8.168,0,0,1,.586.781c.325.391.716.781,1.042,1.237.456.586.912.521,1.5.26a.488.488,0,0,1,.325-.065,2.279,2.279,0,0,0,1.823-.326c.521-.2,1.107-.325,1.3.456,0,.065.2.2.325.2.977,0,1.172.13.912,1.042a2.038,2.038,0,0,0,.521,2.149,1.533,1.533,0,0,1,.326.651c.2.651.326,1.3.456,1.953.065.2-.065.456-.13.716a2.838,2.838,0,0,0-.2,2.6,17.209,17.209,0,0,1,.651,1.953c.2.651.456,1.237.651,1.888a12.853,12.853,0,0,1,.456,1.693.634.634,0,0,0,.846.586,5.192,5.192,0,0,0,.977-.2,2.917,2.917,0,0,0,1.367-.586c.716-.781,1.5-1.5,1.433-2.735,0-.065.13-.26.2-.26.846-.26.716-.912.521-1.563a.923.923,0,0,1,.065-.716c.325-.391.781-.651,1.107-1.042.2-.2.521-.456.521-.651a10.6,10.6,0,0,0-.2-2.018c-.065-.651-.456-1.367-.2-1.953a6.7,6.7,0,0,1,1.693-2.474,7.917,7.917,0,0,0,1.953-3.125,3.812,3.812,0,0,0,.13-.846,4.879,4.879,0,0,0-1.042.26c-.326.065-.716.326-1.042.2-.26-.065-.326-.586-.521-.846-.521-.651-1.3-1.172-1.433-2.084a10.8,10.8,0,0,0-.391-1.042c-.065-.2-.065-.391-.13-.521-.326-.781-.716-1.5-1.042-2.279l.2-.2c.2.13.521.2.586.391.391.781,1.107,1.433,1.107,2.409,0,.065.065.2.13.2a4.174,4.174,0,0,1,1.172,2.67,2.016,2.016,0,0,0,.13.521,3.849,3.849,0,0,0,.912-.391,32.039,32.039,0,0,0,2.8-1.693,8.064,8.064,0,0,0,1.172-1.367c.391-.456.065-.651-.2-.977a10.025,10.025,0,0,0-.846-.781c-.065.065-.13.26-.326.325a4.212,4.212,0,0,1-.846.26c-.065-.2-.065-.391-.13-.651,0-.065-.065-.065-.065-.13l-.2.2a13.783,13.783,0,0,1-.716-1.367.4.4,0,0,1,.13-.456.772.772,0,0,1,.521.065c.13.065.13.26.2.391.391.781,1.042,1.042,1.563.781a10.021,10.021,0,0,0,1.237.586,7.881,7.881,0,0,0,1.237.065c.521,0,.977-.065,1.237.521.13.26.456.391.716.586a.9.9,0,0,1-.26.2c.521.651.651.716,1.107.065a13.119,13.119,0,0,0,1.433,5.469,3.119,3.119,0,0,0,.912-2.474,1.446,1.446,0,0,1,.326-.716c.065-.13.26-.26.391-.391a12.038,12.038,0,0,0,.912-.912c.065-.781.065-1.563.065-2.409a32.893,32.893,0,0,0-7.358-20.706A2.216,2.216,0,0,1,279.446,144.366Zm-5.925,14.455a2.822,2.822,0,0,1-1.237-.26,1.448,1.448,0,0,0-1.367.065,1.179,1.179,0,0,1-1.042-.065c-.326-.2-.2-.521,0-.846.325-.456.521-.977.781-1.367.716.065.716.651.912.977.26-.13.521-.2.781-.325-.2-.065-.325-.2-.716-.391.586-.26,1.042-.391,1.563-.586-.2.391-.391.716-.586,1.042a7.5,7.5,0,0,1,1.107.912c.13.13.326.391.26.586C273.977,158.691,273.716,158.821,273.521,158.821Zm4.167.2c.13.521.26,1.042.456,1.758-.521-.065-.912-.13-1.237-.2-.586-.2-.651-.586-.326-1.042.2-.325.065-.521-.065-.781-.2-.391-.456-.846-.651-1.3A.4.4,0,0,1,276,157c.521-.391.977-.977,1.953-.521-.391.391-.716.651-1.042.977.26.326.456.716.651.977a4.818,4.818,0,0,0,.846.521A2.026,2.026,0,0,0,277.688,159.017Z" transform="translate(-222.799 -136.04)" fill="#fffffc"/>
          <path id="Path_3813" data-name="Path 3813" d="M188.524,196.323Z" transform="translate(-168.665 -178.23)" fill="#fffffc"/>
          <path id="Path_3814" data-name="Path 3814" d="M111.347,174.654c-.2-.065-.26-.26-.456-.391s-.456-.391-.651-.391c-1.042.065-1.693-.781-2.6-.977-.651-.13-.521-.846-.716-1.3a1.77,1.77,0,0,0-1.433-1.107,1.368,1.368,0,0,1-.912-.456c-.456-.326-.846-.781-1.237-1.107-.13-.13-.325-.26-.456-.2a1.508,1.508,0,0,1-1.628-.326c-.2-.13-.586,0-.912.065a.925.925,0,0,0,.13-.391l-.13-.13c-.586.521-1.172.977-1.758,1.5a.732.732,0,0,0-1.107-.13c-.13.065-.391-.065-.521-.13-.586-.456-.391-1.042-.325-1.628.065-.651-.13-.912-.781-.846h-.912c.2-.716.391-1.433.586-2.084-.716-.2-.977-.13-1.172.521-.13.586-.586.521-.977.586a1.042,1.042,0,0,1-.716-.26,5.12,5.12,0,0,1-.521-1.693c-.065-.326.13-.716.13-1.042,0-1.237.716-1.758,1.953-1.367.13.065.325-.065.521-.13s.391-.26.521-.26c.325,0,.651.26.912.2.586-.13.651.26.716.651a7.036,7.036,0,0,0,.521,1.237c.13,0,.2-.065.325-.065a4.089,4.089,0,0,0-.2-1.237,1.63,1.63,0,0,1,.521-2.149c.2-.2.456-.326.651-.521a1.258,1.258,0,0,0,.325-.586c.065-.325-.13-.586.2-1.042.456-.521.651-1.3,1.5-1.367-.13-.846.716-1.563,1.823-1.628a7.64,7.64,0,0,0-.325.716c.065,0,.13,0,.13.065.586-.325,1.172-.651,1.758-1.042-.065-.2-.2-.26-.13-.26-.325.13-.586.391-.781.26-.26-.065-.391-.456-.586-.651-.065-.065-.13-.2-.2-.26a2.138,2.138,0,0,0,.521-.391c-.716-.456-1.172.065-1.693.2a2.054,2.054,0,0,1,1.953-.912,1.338,1.338,0,0,0,1.433-.391c.065-.065.325-.065.456-.065.456-.391.521-.846.26-1.042l-1.172-.781a2.551,2.551,0,0,1-.521-.651c-.325-.651-.586-1.3-.912-1.953a11.683,11.683,0,0,0-.912,1.172h-.26c-.2-.456-.456-.912-.716-1.433a2.846,2.846,0,0,0-2.409-.716v2.018c.781.716.716,1.107-.456,1.888-.065.521.651,1.172-.391,1.693-.26-.651-.521-1.3-.716-1.823-.977-.391-2.018-.846-3.06-1.237a6.388,6.388,0,0,0-.456-.651c-.13-.2-.325-.325-.325-.521a3.626,3.626,0,0,1,1.693-2.214,3.129,3.129,0,0,0,.716-.586,2.825,2.825,0,0,0,.391-.456h0c-.065-.13-.065-.2-.2-.456a1.132,1.132,0,0,0,1.563-.26c-.065-.325-.065-.521-.13-.716,0-.2,0-.456-.13-.521a3.342,3.342,0,0,0-.781-.325,9.741,9.741,0,0,1-.716,1.433c-.065,0-.13.065-.2.065l-.2-.586c-.065-.2-.13-.391-.26-.716-.2.325-.325.456-.456.651-.065-.456-.065-.846-.586-.716a1.142,1.142,0,0,0-.521-1.237c-.26.325-.521.586-.781.912.065.13.13.2.2.325H92.2c-.13.2-.26.326-.391.521a.227.227,0,0,1,.13.065,1.012,1.012,0,0,1-.521.391,32.78,32.78,0,0,0-6.316,15.952c.065.065.13.065.13.13a5.875,5.875,0,0,1,.586.651,8.1,8.1,0,0,1,.651,1.3,7.639,7.639,0,0,0,.325.716,5.655,5.655,0,0,0,.586.716,6.183,6.183,0,0,1,.651,1.107c.065-.065.13-.065.2-.13-.586-1.107-1.172-2.214-1.758-3.256a.9.9,0,0,1,.26-.2,3.01,3.01,0,0,1,.456.456,2.928,2.928,0,0,0,.391.781c.521.716,1.107,1.367,1.628,2.084a3.928,3.928,0,0,1,.391,1.237c.065.2.13.391.26.456a13.468,13.468,0,0,0,1.628.977,2.076,2.076,0,0,0,1.563.26c.325-.065.846.586,1.3.846a2.836,2.836,0,0,1,1.433,1.042c.065.2.065.456.2.521a14.472,14.472,0,0,0,1.5.977,3.582,3.582,0,0,0,.456-.586.927.927,0,0,1,.26.13,7.115,7.115,0,0,1,.325,1.107c.2.716-.26,1.237-.651,1.758a1.29,1.29,0,0,0-.2,1.628.855.855,0,0,0-.2,1.237l.781,1.367c.521,1.042.716,2.279,2.018,2.8a1.05,1.05,0,0,1,.586,1.172c-.2,1.823-.26,3.646-.521,5.4-.13.977-.586,1.953-.651,2.93a7.175,7.175,0,0,1-.13,1.172l.065.065h0c.065-.2.13-.456.2-.651a.239.239,0,0,1,.2.065c-.065.26-.065.521-.13.781.586.391,1.172.716,1.758,1.042a2.081,2.081,0,0,1,.391-.456.535.535,0,0,0,.26-.391c.065-.456.13-.912.2-1.3.26,0,.586,0,.716-.13s.13-.521.2-.781c.065.065.065.13.13.13a4.68,4.68,0,0,0,1.367-.781c.456-.456-.065-.912-.325-1.367,1.3.391,1.563.26,2.018-1.042.065-.26.325-.391.521-.651a3.959,3.959,0,0,0,.586-1.172,2.017,2.017,0,0,1,1.693-1.888,1.158,1.158,0,0,0,.716-.521,5.23,5.23,0,0,0,.651-2.8.7.7,0,0,1,.13-.521c.26-.456.651-.846.912-1.3a4.21,4.21,0,0,0,.26-1.3C112,174.785,111.608,174.785,111.347,174.654ZM92.725,142.294c.2.13.391.26.651.456l-.781.781C92.269,143.14,92.6,142.684,92.725,142.294Z" transform="translate(-85.107 -133.577)" fill="#fffffc"/>
          <path id="Path_3815" data-name="Path 3815" d="M133.66,134.49h0a.064.064,0,0,0-.065.065C133.6,134.49,133.6,134.49,133.66,134.49Z" transform="translate(-124.284 -128.248)" fill="#fffffc"/>
          <path id="Path_3816" data-name="Path 3816" d="M163.211,106.328q.781-.1,1.367-.2c-.586-.13-1.172-.26-1.823-.391.716-.716,1.823-.391,2.67-1.237a6.914,6.914,0,0,1-.912-.2v-.13c.651-.2,1.237-.391,1.953-.651a1.139,1.139,0,0,1,.065-.325c.781.065,1.628-.651,2.474,0a.064.064,0,0,0,.065-.065v-.2c.325.13.586.2,1.042.391-.13-.2-.2-.325-.391-.586.781.2,1.433.391,2.018.521V103.2c-.26-.13-.521-.2-.781-.325a2.712,2.712,0,0,1,2.539-.325c1.107-.716,2.344-.391,3.516-.26a10.836,10.836,0,0,1,1.953.521v.2c-.716.065-1.367.13-2.084.2.716.065,1.367.065,2.084.13a5.975,5.975,0,0,0-.326.521,5.5,5.5,0,0,1,3.451-.391,6.6,6.6,0,0,0-3,2.279c.26.065.456.13.781.2-.13.065-.2.065-.456.2.325.065.521.13.781.2a1.1,1.1,0,0,0-.13.325H179.1a8.512,8.512,0,0,0,.716.781,1.423,1.423,0,0,1-.325.2l.391.391c-.391.26-.716.521-1.107.781.065.391.2.912.326,1.693-.456-.2-.781-.391-1.172-.586-.065.13-.2.325-.26.456.325.065.651.13,1.042.2a5.251,5.251,0,0,1-2.539,1.107,1.361,1.361,0,0,0-.846.456,1.918,1.918,0,0,1-1.563.846.651.651,0,0,0-.716.716c0,.13,0,.325-.065.391-.521.456-.521,1.042-.716,1.628-.13.391-.391.391-.651.2l-.26-.26c-1.3-.2-1.563-1.3-1.953-2.214a4.369,4.369,0,0,1-.456-1.172c0-.26.2-.846.325-.846.391-.065.521-.2.456-.456-.065-.2-.326-.391-.456-.521l-.2.2c.13.065.26.065.391.13-.065.065-.065.13-.13.2-.325-.065-.651-.065-.912-.13.26-.716.26-.716,1.172-.586,0-.065.065-.13.065-.2-.456-.13-.912-.325-1.433-.521a2.3,2.3,0,0,0-.977-2.279,3.172,3.172,0,0,0-1.628-.391,7.881,7.881,0,0,0-1.237.065c-.2,0-.326-.13-.521-.26A1.219,1.219,0,0,1,163.211,106.328Z" transform="translate(-147.844 -102.104)" fill="#fffffc"/>
          <path id="Path_3817" data-name="Path 3817" d="M137.854,135.039c.912-.26,1.3.391,1.888.846a8.231,8.231,0,0,0,1.693.846,1.661,1.661,0,0,1,.651.456c.13.13,0,.456-.065.781.521.26,1.237.651,2.018,1.042-.26.325-.521.586-.781.977-.326-.26-.651-.521-1.042-.846-.26.521,0,.716.326.912.391.26.716.586.26,1.107-.325-.13-.651-.326-.977-.456l-.065.065c.26.2.521.456.781.651,0,.065-.065.065-.065.13-.651-.26-1.3-.26-1.758-.912a1.086,1.086,0,0,0-1.3-.391,2.627,2.627,0,0,1-.716,0c.26-.912,1.042-.2,1.237-.716a7.35,7.35,0,0,1,.651-.846,1.247,1.247,0,0,0-1.172-.846,9.484,9.484,0,0,0-.586-.846,4.563,4.563,0,0,1-3.581-.326c.13,0,.326-.065.586-.065a5.283,5.283,0,0,1-.716-.2c-.2-.977.325-1.5,1.3-1.367a3.671,3.671,0,0,0-.26.781c0,.2.2.391.325.586-.065-.391-.325-.781.13-1.107a.9.9,0,0,1,1.367.13A.644.644,0,0,1,137.854,135.039Z" transform="translate(-125.482 -128.667)" fill="#fffffc"/>
        </g>
        <path id="Path_3818" data-name="Path 3818" d="M58.912,168.215c-18.492,8.725-35.16,12.306-37.244,8.009L7.8,182.8c3.06,6.446,26.761,1.693,52.936-10.678S105.662,144.514,102.667,138l-13.934,6.576C90.752,148.877,77.4,159.49,58.912,168.215Z" transform="translate(-4.805 -90.865)" fill="#0089e8"/>
      </g>
      <g id="marketing_1_" data-name="marketing (1)" transform="translate(3196 18576.533)">
        <rect id="Rectangle_676" data-name="Rectangle 676" width="4.277" height="20.178" transform="translate(8.144 97.243)" fill="#0089e8"/>
        <rect id="Rectangle_677" data-name="Rectangle 677" width="4.277" height="25.007" transform="translate(22.861 92.415)" fill="#58deb6"/>
        <rect id="Rectangle_678" data-name="Rectangle 678" width="4.277" height="20.432" transform="translate(30.22 96.99)" fill="#62a7ff"/>
        <rect id="Rectangle_679" data-name="Rectangle 679" width="4.277" height="29.812" transform="translate(37.576 87.61)" fill="#0089e8"/>
        <rect id="Rectangle_680" data-name="Rectangle 680" width="4.277" height="40.24" transform="translate(44.938 77.182)" fill="#58deb6"/>
        <rect id="Rectangle_681" data-name="Rectangle 681" width="4.277" height="16.184" transform="translate(15.502 101.238)" fill="#666"/>
        <rect id="Rectangle_682" data-name="Rectangle 682" width="4.277" height="12.779" transform="translate(0.785 104.644)" fill="#58deb6"/>
        <path id="Path_3819" data-name="Path 3819" d="M9.865,147.373a.839.839,0,0,1,.062-1.185L18.02,138.9a.839.839,0,0,1,.943-.124l6.493,3.315,7.155-10.232a.838.838,0,0,1,1.154-.217l6.683,4.461L54.039,117.11a.839.839,0,1,1,1.365.977L41.339,137.734a.84.84,0,0,1-1.148.21l-6.676-4.456-7.1,10.157a.839.839,0,0,1-1.07.267l-6.629-3.384-7.664,6.907A.839.839,0,0,1,9.865,147.373Z" transform="translate(-8.299 -47.56)" fill="#555"/>
        <circle id="Ellipse_83" data-name="Ellipse 83" cx="2.188" cy="2.188" r="2.188" transform="translate(0 97.063)" fill="#57d48f"/>
        <circle id="Ellipse_84" data-name="Ellipse 84" cx="2.188" cy="2.188" r="2.188" transform="translate(8.043 90.227)" fill="#58deb6"/>
        <circle id="Ellipse_85" data-name="Ellipse 85" cx="2.188" cy="2.188" r="2.188" transform="translate(15.238 93.634)" fill="#fdfeff"/>
        <circle id="Ellipse_86" data-name="Ellipse 86" cx="2.188" cy="2.188" r="2.188" transform="translate(22.81 83.032)" fill="#f1592f"/>
        <circle id="Ellipse_87" data-name="Ellipse 87" cx="2.188" cy="2.188" r="2.188" transform="translate(30.387 87.615)" fill="#fdfeff"/>
        <circle id="Ellipse_88" data-name="Ellipse 88" cx="2.188" cy="2.188" r="2.188" transform="translate(44.234 67.85)" fill="#70b1e1"/>
        <path id="Path_3820" data-name="Path 3820" d="M364.14,307.657a174.1,174.1,0,0,0,11.241,14.077,5.529,5.529,0,0,0,7.819-7.819,174.224,174.224,0,0,0-14.077-11.241Z" transform="translate(-313.213 -207.474)" fill="#555"/>
        <rect id="Rectangle_683" data-name="Rectangle 683" width="6.415" height="9.756" transform="translate(50.781 101.952) rotate(-135)" fill="#222"/>
        <circle id="Ellipse_89" data-name="Ellipse 89" cx="20.475" cy="20.475" r="20.475" transform="translate(17.191 61.466)" fill="#d2d2d4"/>
        <circle id="Ellipse_90" data-name="Ellipse 90" cx="17.168" cy="17.168" r="17.168" transform="translate(20.498 64.773)" fill="#fafafa"/>
        <path id="Path_3821" data-name="Path 3821" d="M194.163,260.594v8.692a16.968,16.968,0,0,1-5.179-3.092v-5.6Z" transform="translate(-162.554 -171.279)" fill="#58deb6"/>
        <path id="Path_3822" data-name="Path 3822" d="M257.883,300.182V304.2a17.248,17.248,0,0,1-2.855.237,16.249,16.249,0,0,1-2.323-.162v-4.1h5.179Z" transform="translate(-217.362 -205.33)" fill="#62a7ff"/>
        <path id="Path_3823" data-name="Path 3823" d="M321.607,218.975v10.946a17.063,17.063,0,0,1-5.179,3.358v-14.3h5.179Z" transform="translate(-272.174 -135.48)" fill="#0089e8"/>
        <path id="Path_3824" data-name="Path 3824" d="M381.788,162.364a17.067,17.067,0,0,1-1.676,7.4v-14.8A17.032,17.032,0,0,1,381.788,162.364Z" transform="translate(-326.951 -80.424)" fill="#58deb6"/>
        <path id="Path_3825" data-name="Path 3825" d="M184.621,116.443l-10.1,14.108-1.509,2.1a1.012,1.012,0,0,1-1.387.255l-1.78-1.19-4.733-3.156-1.572-1.052-1.15,1.641-5.265,7.542a16.953,16.953,0,0,1-1.041-2.069l4.791-6.855,1.566-2.237a1.021,1.021,0,0,1,1.4-.266l2.086,1.393,5.022,3.352.983.659.792-1.11,10.42-14.553A16.33,16.33,0,0,1,184.621,116.443Z" transform="translate(-134.258 -46.056)" fill="#555"/>
        <circle id="Ellipse_91" data-name="Ellipse 91" cx="2.649" cy="2.649" r="2.649" transform="translate(26.373 77.951)" fill="#58deb6"/>
        <circle id="Ellipse_92" data-name="Ellipse 92" cx="2.649" cy="2.649" r="2.649" transform="translate(35.542 83.495)" fill="#0089e8"/>
      </g>
    </g>
  </g>
</svg>
