<svg xmlns="http://www.w3.org/2000/svg" width="85.631" height="49.722" viewBox="0 0 85.631 49.722">
  <g id="boss" transform="translate(0 -108)">
    <path id="Path_503" data-name="Path 503" d="M342.385,263.336H312v-8.287A11.059,11.059,0,0,1,323.049,244h8.287a11.059,11.059,0,0,1,11.049,11.049Z" transform="translate(-258.135 -112.521)" fill="#bfbfbf"/>
    <path id="Path_504" data-name="Path 504" d="M327.193,244h-4.143A11.059,11.059,0,0,0,312,255.049v8.287h26.242v-8.287A11.059,11.059,0,0,0,327.193,244Z" transform="translate(-258.135 -112.521)" fill="#d9d9d9"/>
    <path id="Path_505" data-name="Path 505" d="M372.43,244l1.381,9.668-6.906-4.143L360,253.668,361.381,244" transform="translate(-297.849 -112.521)" fill="#c6c6c6"/>
    <path id="Path_506" data-name="Path 506" d="M353.668,138.1A9.674,9.674,0,0,1,344,128.43v-2.762a9.668,9.668,0,1,1,19.336,0v2.762A9.674,9.674,0,0,1,353.668,138.1Z" transform="translate(-284.611 -6.619)" fill="#bfbfbf"/>
    <path id="Path_507" data-name="Path 507" d="M352.287,116.6A9.674,9.674,0,0,0,344,126.164v2.762a8.372,8.372,0,1,0,16.574,0v-2.762A9.674,9.674,0,0,0,352.287,116.6Z" transform="translate(-284.611 -7.115)" fill="#ededed"/>
    <path id="Path_508" data-name="Path 508" d="M355.049,116.1a9.128,9.128,0,0,0-1.381-.1A9.674,9.674,0,0,0,344,125.668v1.381h4.143a6.9,6.9,0,0,0,6.906-6.906Z" transform="translate(-284.611 -6.619)" fill="#aaa"/>
    <path id="Path_509" data-name="Path 509" d="M416.287,127.546v-1.381A9.674,9.674,0,0,0,408,116.6v4.04a6.9,6.9,0,0,0,6.906,6.906Z" transform="translate(-337.562 -7.115)" fill="#aaa"/>
    <path id="Path_511" data-name="Path 511" d="M38.385,263.336H8v-8.287A11.059,11.059,0,0,1,19.049,244h8.287a11.059,11.059,0,0,1,11.049,11.049Z" transform="translate(-6.619 -112.521)" fill="#bfbfbf"/>
    <path id="Path_512" data-name="Path 512" d="M23.193,244H19.049A11.059,11.059,0,0,0,8,255.049v8.287H34.242v-8.287A11.059,11.059,0,0,0,23.193,244Z" transform="translate(-6.619 -112.521)" fill="#d9d9d9"/>
    <path id="Path_513" data-name="Path 513" d="M68.43,244l1.381,9.668-6.906-4.143L56,253.668,57.381,244" transform="translate(-46.332 -112.521)" fill="#c6c6c6"/>
    <path id="Path_514" data-name="Path 514" d="M49.668,138.1A9.674,9.674,0,0,1,40,128.43v-2.762a9.668,9.668,0,0,1,19.336,0v2.762A9.674,9.674,0,0,1,49.668,138.1Z" transform="translate(-33.094 -6.619)" fill="#bfbfbf"/>
    <path id="Path_515" data-name="Path 515" d="M48.287,116.6A9.674,9.674,0,0,0,40,126.164v2.762a9.674,9.674,0,0,0,8.287,9.564,9.674,9.674,0,0,0,8.287-9.564v-2.762A9.674,9.674,0,0,0,48.287,116.6Z" transform="translate(-33.094 -7.115)" fill="#ededed"/>
    <path id="Path_516" data-name="Path 516" d="M51.049,116.1a9.128,9.128,0,0,0-1.381-.1A9.674,9.674,0,0,0,40,125.668v1.381h4.143a6.9,6.9,0,0,0,6.906-6.906Z" transform="translate(-33.094 -6.619)" fill="#aaa"/>
    <path id="Path_517" data-name="Path 517" d="M112.287,127.546v-1.381A9.674,9.674,0,0,0,104,116.6v4.04a6.9,6.9,0,0,0,6.906,6.906Z" transform="translate(-86.045 -7.115)" fill="#aaa"/>
    <path id="Path_519" data-name="Path 519" d="M43.049,132.861A11.059,11.059,0,0,1,32,121.811v-2.762a11.049,11.049,0,1,1,22.1,0v2.762A11.059,11.059,0,0,1,43.049,132.861Zm0-22.1a8.289,8.289,0,0,0-8.287,8.287v2.762a8.287,8.287,0,0,0,16.574,0v-2.762A8.289,8.289,0,0,0,43.049,110.762Z" transform="translate(-26.475)" fill="#666"/>
    <path id="Path_520" data-name="Path 520" d="M27.623,258.1H1.381A1.385,1.385,0,0,1,0,256.717V248.43A12.445,12.445,0,0,1,12.43,236h8.287a12.433,12.433,0,0,1,12.033,9.288l-2.676.691a9.665,9.665,0,0,0-9.357-7.216H12.43a9.674,9.674,0,0,0-9.668,9.668v6.906H27.623Z" transform="translate(0 -105.902)" fill="#666"/>
    <path id="Path_521" data-name="Path 521" d="M44.143,128.43H40v-2.762h4.143a5.541,5.541,0,0,0,5.525-5.525V116H52.43v4.143A8.289,8.289,0,0,1,44.143,128.43Z" transform="translate(-33.094 -6.619)" fill="#666"/>
    <path id="Path_522" data-name="Path 522" d="M105.668,128.43h-1.381A8.289,8.289,0,0,1,96,120.143V116h2.762v4.143a5.541,5.541,0,0,0,5.525,5.525h1.381Z" transform="translate(-79.426 -6.619)" fill="#666"/>
    <path id="Path_523" data-name="Path 523" d="M63.216,254.056a1.5,1.5,0,0,1-.708-.19l-6.2-3.729-6.2,3.712a1.379,1.379,0,0,1-2.072-1.381l1.381-9.668,2.728.4-.967,6.8,4.42-2.659a1.387,1.387,0,0,1,1.416,0L61.438,250l-.967-6.8,2.728-.4,1.381,9.668a1.378,1.378,0,0,1-.6,1.347A1.243,1.243,0,0,1,63.216,254.056Z" transform="translate(-39.737 -111.528)" fill="#666"/>
    <path id="Path_524" data-name="Path 524" d="M88,276h2.762v13.811H88Z" transform="translate(-72.807 -138.996)" fill="#666"/>
    <path id="Path_525" data-name="Path 525" d="M347.049,132.861A11.059,11.059,0,0,1,336,121.811v-2.762a11.049,11.049,0,0,1,22.1,0v2.762A11.059,11.059,0,0,1,347.049,132.861Zm0-22.1a8.289,8.289,0,0,0-8.287,8.287v2.762a8.287,8.287,0,0,0,16.574,0v-2.762A8.289,8.289,0,0,0,347.049,110.762Z" transform="translate(-277.992)" fill="#666"/>
    <path id="Path_526" data-name="Path 526" d="M337.669,258.1H311.427v-2.762h24.861V248.43a9.674,9.674,0,0,0-9.668-9.668h-8.287a9.665,9.665,0,0,0-9.357,7.216l-2.676-.691A12.433,12.433,0,0,1,318.333,236h8.287a12.445,12.445,0,0,1,12.43,12.43v8.287A1.385,1.385,0,0,1,337.669,258.1Z" transform="translate(-253.419 -105.902)" fill="#666"/>
    <path id="Path_527" data-name="Path 527" d="M348.143,128.43H344v-2.762h4.143a5.541,5.541,0,0,0,5.525-5.525V116h2.762v4.143A8.289,8.289,0,0,1,348.143,128.43Z" transform="translate(-284.611 -6.619)" fill="#666"/>
    <path id="Path_528" data-name="Path 528" d="M409.668,128.43h-1.381A8.289,8.289,0,0,1,400,120.143V116h2.762v4.143a5.541,5.541,0,0,0,5.525,5.525h1.381Z" transform="translate(-330.943 -6.619)" fill="#666"/>
    <path id="Path_529" data-name="Path 529" d="M367.216,254.056a1.5,1.5,0,0,1-.708-.19l-6.2-3.729-6.2,3.712a1.379,1.379,0,0,1-2.072-1.381l1.381-9.668,2.728.4-.967,6.8,4.42-2.659a1.387,1.387,0,0,1,1.416,0l4.42,2.659-.967-6.8,2.728-.4,1.381,9.668a1.378,1.378,0,0,1-.6,1.347A1.243,1.243,0,0,1,367.216,254.056Z" transform="translate(-291.253 -111.528)" fill="#666"/>
    <path id="Path_530" data-name="Path 530" d="M392,276h2.762v13.811H392Z" transform="translate(-324.324 -138.996)" fill="#666"/>
    <path id="Path_531" data-name="Path 531" d="M190.385,295.336H160v-8.287A11.059,11.059,0,0,1,171.049,276h8.287a11.059,11.059,0,0,1,11.049,11.049Z" transform="translate(-132.377 -138.996)" fill="#bfbfbf"/>
    <path id="Path_532" data-name="Path 532" d="M175.193,276h-4.143A11.059,11.059,0,0,0,160,287.049v8.287h26.242v-8.287A11.059,11.059,0,0,0,175.193,276Z" transform="translate(-132.377 -138.996)" fill="#d9d9d9"/>
    <path id="Path_533" data-name="Path 533" d="M220.43,276l1.381,9.668-6.906-4.143L208,285.668,209.381,276" transform="translate(-172.09 -138.996)" fill="#c6c6c6"/>
    <path id="Path_534" data-name="Path 534" d="M201.668,170.1A9.674,9.674,0,0,1,192,160.43v-2.762a9.668,9.668,0,1,1,19.336,0v2.762A9.674,9.674,0,0,1,201.668,170.1Z" transform="translate(-158.853 -33.094)" fill="#bfbfbf"/>
    <path id="Path_535" data-name="Path 535" d="M200.287,148.6A9.674,9.674,0,0,0,192,158.164v2.762a9.674,9.674,0,0,0,8.287,9.564,9.674,9.674,0,0,0,8.287-9.564v-2.762A9.674,9.674,0,0,0,200.287,148.6Z" transform="translate(-158.853 -33.591)" fill="#ededed"/>
    <path id="Path_536" data-name="Path 536" d="M203.049,148.1a9.127,9.127,0,0,0-1.381-.1A9.674,9.674,0,0,0,192,157.668v1.381h4.143a6.9,6.9,0,0,0,6.906-6.906Z" transform="translate(-158.853 -33.094)" fill="#aaa"/>
    <path id="Path_537" data-name="Path 537" d="M264.287,159.546v-1.381A9.674,9.674,0,0,0,256,148.6v4.04a6.9,6.9,0,0,0,6.906,6.906Z" transform="translate(-211.803 -33.591)" fill="#aaa"/>
    <path id="Path_538" data-name="Path 538" d="M256,153.5v3.194a6.893,6.893,0,0,0,5.525,6.768v-1.243A9.656,9.656,0,0,0,256,153.5Z" transform="translate(-211.803 -37.645)" fill="#aaa"/>
    <path id="Path_539" data-name="Path 539" d="M195.049,164.861A11.059,11.059,0,0,1,184,153.811v-2.762a11.049,11.049,0,0,1,22.1,0v2.762A11.059,11.059,0,0,1,195.049,164.861Zm0-22.1a8.289,8.289,0,0,0-8.287,8.287v2.762a8.287,8.287,0,1,0,16.574,0v-2.762A8.289,8.289,0,0,0,195.049,142.762Z" transform="translate(-152.234 -26.475)" fill="#666"/>
    <path id="Path_540" data-name="Path 540" d="M183.766,290.1H153.381A1.385,1.385,0,0,1,152,288.717V280.43A12.445,12.445,0,0,1,164.43,268h8.287a12.445,12.445,0,0,1,12.43,12.43v8.287A1.385,1.385,0,0,1,183.766,290.1Zm-29-2.762h27.623V280.43a9.674,9.674,0,0,0-9.668-9.668H164.43a9.674,9.674,0,0,0-9.668,9.668Z" transform="translate(-125.758 -132.377)" fill="#666"/>
    <path id="Path_541" data-name="Path 541" d="M196.143,160.43H192v-2.762h4.143a5.541,5.541,0,0,0,5.525-5.525V148h2.762v4.143A8.289,8.289,0,0,1,196.143,160.43Z" transform="translate(-158.853 -33.094)" fill="#666"/>
    <path id="Path_542" data-name="Path 542" d="M257.668,160.43h-1.381A8.289,8.289,0,0,1,248,152.143V148h2.762v4.143a5.541,5.541,0,0,0,5.525,5.525h1.381Z" transform="translate(-205.185 -33.094)" fill="#666"/>
    <path id="Path_543" data-name="Path 543" d="M215.216,286.056a1.5,1.5,0,0,1-.708-.19l-6.2-3.729-6.2,3.712a1.379,1.379,0,0,1-2.072-1.381l1.381-9.668,2.728.4-.967,6.8,4.42-2.659a1.387,1.387,0,0,1,1.416,0l4.42,2.659-.967-6.8,2.728-.4,1.381,9.668a1.378,1.378,0,0,1-.6,1.347A1.243,1.243,0,0,1,215.216,286.056Z" transform="translate(-165.495 -138.003)" fill="#666"/>
    <path id="Path_544" data-name="Path 544" d="M240,308h2.762v13.811H240Z" transform="translate(-198.566 -165.471)" fill="#666"/>
  </g>
</svg>
